2020-03-18T12:29:58+00:00 CRITICAL Uncaught Error: Call to undefined function caleader_options() in /home/customer/www/otw.sinnis-grp.co.uk/public_html/wp-content/plugins/caleader-core/post_type/custom-post-services.php:41
Stack trace:
#0 /home/customer/www/otw.sinnis-grp.co.uk/public_html/wp-includes/class-wp-hook.php(288): CPT_CarLeader_Services->carleader_services_services_post_type('')
#1 /home/customer/www/otw.sinnis-grp.co.uk/public_html/wp-includes/class-wp-hook.php(312): WP_Hook->apply_filters(NULL, Array)
#2 /home/customer/www/otw.sinnis-grp.co.uk/public_html/wp-includes/plugin.php(478): WP_Hook->do_action(Array)
#3 /home/customer/www/otw.sinnis-grp.co.uk/public_html/wp-settings.php(523): do_action('init')
#4 /home/customer/www/otw.sinnis-grp.co.uk/public_html/wp-config.php(90): require_once('/home/customer/...')
#5 /home/customer/www/otw.sinnis-grp.co.uk/public_html/wp-load.php(37): require_once('/home/customer/...')
#6 /home/customer/www/otw.sinnis-grp.co.uk/public_html/wp-admin/admin.php(34): require_once('/home/customer/...')
#7 / in /home/customer/www/otw.sinnis-grp.co.uk/public_html/wp-content/plugins/caleader-core/post_type/custom-post-services.php on line 41

2020-03-18T12:30:00+00:00 CRITICAL Uncaught Error: Call to undefined function caleader_options() in /home/customer/www/otw.sinnis-grp.co.uk/public_html/wp-content/plugins/caleader-core/post_type/custom-post-services.php:41
Stack trace:
#0 /home/customer/www/otw.sinnis-grp.co.uk/public_html/wp-includes/class-wp-hook.php(288): CPT_CarLeader_Services->carleader_services_services_post_type('')
#1 /home/customer/www/otw.sinnis-grp.co.uk/public_html/wp-includes/class-wp-hook.php(312): WP_Hook->apply_filters(NULL, Array)
#2 /home/customer/www/otw.sinnis-grp.co.uk/public_html/wp-includes/plugin.php(478): WP_Hook->do_action(Array)
#3 /home/customer/www/otw.sinnis-grp.co.uk/public_html/wp-settings.php(523): do_action('init')
#4 /home/customer/www/otw.sinnis-grp.co.uk/public_html/wp-config.php(90): require_once('/home/customer/...')
#5 /home/customer/www/otw.sinnis-grp.co.uk/public_html/wp-load.php(37): require_once('/home/customer/...')
#6 /home/customer/www/otw.sinnis-grp.co.uk/public_html/wp-admin/admin.php(34): require_once('/home/customer/...')
#7 / in /home/customer/www/otw.sinnis-grp.co.uk/public_html/wp-content/plugins/caleader-core/post_type/custom-post-services.php on line 41

2020-03-18T12:30:02+00:00 CRITICAL Uncaught Error: Call to undefined function caleader_options() in /home/customer/www/otw.sinnis-grp.co.uk/public_html/wp-content/plugins/caleader-core/post_type/custom-post-services.php:41
Stack trace:
#0 /home/customer/www/otw.sinnis-grp.co.uk/public_html/wp-includes/class-wp-hook.php(288): CPT_CarLeader_Services->carleader_services_services_post_type('')
#1 /home/customer/www/otw.sinnis-grp.co.uk/public_html/wp-includes/class-wp-hook.php(312): WP_Hook->apply_filters(NULL, Array)
#2 /home/customer/www/otw.sinnis-grp.co.uk/public_html/wp-includes/plugin.php(478): WP_Hook->do_action(Array)
#3 /home/customer/www/otw.sinnis-grp.co.uk/public_html/wp-settings.php(523): do_action('init')
#4 /home/customer/www/otw.sinnis-grp.co.uk/public_html/wp-config.php(90): require_once('/home/customer/...')
#5 /home/customer/www/otw.sinnis-grp.co.uk/public_html/wp-load.php(37): require_once('/home/customer/...')
#6 /home/customer/www/otw.sinnis-grp.co.uk/public_html/wp-admin/admin.php(34): require_once('/home/customer/...')
#7 / in /home/customer/www/otw.sinnis-grp.co.uk/public_html/wp-content/plugins/caleader-core/post_type/custom-post-services.php on line 41

2020-03-18T12:30:03+00:00 CRITICAL Uncaught Error: Call to undefined function caleader_options() in /home/customer/www/otw.sinnis-grp.co.uk/public_html/wp-content/plugins/caleader-core/post_type/custom-post-services.php:41
Stack trace:
#0 /home/customer/www/otw.sinnis-grp.co.uk/public_html/wp-includes/class-wp-hook.php(288): CPT_CarLeader_Services->carleader_services_services_post_type('')
#1 /home/customer/www/otw.sinnis-grp.co.uk/public_html/wp-includes/class-wp-hook.php(312): WP_Hook->apply_filters(NULL, Array)
#2 /home/customer/www/otw.sinnis-grp.co.uk/public_html/wp-includes/plugin.php(478): WP_Hook->do_action(Array)
#3 /home/customer/www/otw.sinnis-grp.co.uk/public_html/wp-settings.php(523): do_action('init')
#4 /home/customer/www/otw.sinnis-grp.co.uk/public_html/wp-config.php(90): require_once('/home/customer/...')
#5 /home/customer/www/otw.sinnis-grp.co.uk/public_html/wp-load.php(37): require_once('/home/customer/...')
#6 /home/customer/www/otw.sinnis-grp.co.uk/public_html/wp-admin/admin.php(34): require_once('/home/customer/...')
#7 { in /home/customer/www/otw.sinnis-grp.co.uk/public_html/wp-content/plugins/caleader-core/post_type/custom-post-services.php on line 41

2020-03-18T12:30:04+00:00 CRITICAL Uncaught Error: Call to undefined function caleader_options() in /home/customer/www/otw.sinnis-grp.co.uk/public_html/wp-content/plugins/caleader-core/post_type/custom-post-services.php:41
Stack trace:
#0 /home/customer/www/otw.sinnis-grp.co.uk/public_html/wp-includes/class-wp-hook.php(288): CPT_CarLeader_Services->carleader_services_services_post_type('')
#1 /home/customer/www/otw.sinnis-grp.co.uk/public_html/wp-includes/class-wp-hook.php(312): WP_Hook->apply_filters(NULL, Array)
#2 /home/customer/www/otw.sinnis-grp.co.uk/public_html/wp-includes/plugin.php(478): WP_Hook->do_action(Array)
#3 /home/customer/www/otw.sinnis-grp.co.uk/public_html/wp-settings.php(523): do_action('init')
#4 /home/customer/www/otw.sinnis-grp.co.uk/public_html/wp-config.php(90): require_once('/home/customer/...')
#5 /home/customer/www/otw.sinnis-grp.co.uk/public_html/wp-load.php(37): require_once('/home/customer/...')
#6 /home/customer/www/otw.sinnis-grp.co.uk/public_html/wp-admin/admin.php(34): require_once('/home/customer/...')
#7 { in /home/customer/www/otw.sinnis-grp.co.uk/public_html/wp-content/plugins/caleader-core/post_type/custom-post-services.php on line 41

2020-03-18T12:30:11+00:00 CRITICAL Uncaught Error: Call to undefined function caleader_options() in /home/customer/www/otw.sinnis-grp.co.uk/public_html/wp-content/plugins/caleader-core/post_type/custom-post-services.php:41
Stack trace:
#0 /home/customer/www/otw.sinnis-grp.co.uk/public_html/wp-includes/class-wp-hook.php(288): CPT_CarLeader_Services->carleader_services_services_post_type('')
#1 /home/customer/www/otw.sinnis-grp.co.uk/public_html/wp-includes/class-wp-hook.php(312): WP_Hook->apply_filters(NULL, Array)
#2 /home/customer/www/otw.sinnis-grp.co.uk/public_html/wp-includes/plugin.php(478): WP_Hook->do_action(Array)
#3 /home/customer/www/otw.sinnis-grp.co.uk/public_html/wp-settings.php(523): do_action('init')
#4 /home/customer/www/otw.sinnis-grp.co.uk/public_html/wp-config.php(90): require_once('/home/customer/...')
#5 /home/customer/www/otw.sinnis-grp.co.uk/public_html/wp-load.php(37): require_once('/home/customer/...')
#6 /home/customer/www/otw.sinnis-grp.co.uk/public_html/wp-blog-header.php(13): require_once('/home/customer/...')
#7 / in /home/customer/www/otw.sinnis-grp.co.uk/public_html/wp-content/plugins/caleader-core/post_type/custom-post-services.php on line 41

2020-03-18T12:30:13+00:00 CRITICAL Uncaught Error: Call to undefined function caleader_options() in /home/customer/www/otw.sinnis-grp.co.uk/public_html/wp-content/plugins/caleader-core/post_type/custom-post-services.php:41
Stack trace:
#0 /home/customer/www/otw.sinnis-grp.co.uk/public_html/wp-includes/class-wp-hook.php(288): CPT_CarLeader_Services->carleader_services_services_post_type('')
#1 /home/customer/www/otw.sinnis-grp.co.uk/public_html/wp-includes/class-wp-hook.php(312): WP_Hook->apply_filters(NULL, Array)
#2 /home/customer/www/otw.sinnis-grp.co.uk/public_html/wp-includes/plugin.php(478): WP_Hook->do_action(Array)
#3 /home/customer/www/otw.sinnis-grp.co.uk/public_html/wp-settings.php(523): do_action('init')
#4 /home/customer/www/otw.sinnis-grp.co.uk/public_html/wp-config.php(90): require_once('/home/customer/...')
#5 /home/customer/www/otw.sinnis-grp.co.uk/public_html/wp-load.php(37): require_once('/home/customer/...')
#6 /home/customer/www/otw.sinnis-grp.co.uk/public_html/wp-blog-header.php(13): require_once('/home/customer/...')
#7 / in /home/customer/www/otw.sinnis-grp.co.uk/public_html/wp-content/plugins/caleader-core/post_type/custom-post-services.php on line 41

2020-03-18T12:30:16+00:00 CRITICAL Uncaught Error: Call to undefined function caleader_options() in /home/customer/www/otw.sinnis-grp.co.uk/public_html/wp-content/plugins/caleader-core/post_type/custom-post-services.php:41
Stack trace:
#0 /home/customer/www/otw.sinnis-grp.co.uk/public_html/wp-includes/class-wp-hook.php(288): CPT_CarLeader_Services->carleader_services_services_post_type('')
#1 /home/customer/www/otw.sinnis-grp.co.uk/public_html/wp-includes/class-wp-hook.php(312): WP_Hook->apply_filters(NULL, Array)
#2 /home/customer/www/otw.sinnis-grp.co.uk/public_html/wp-includes/plugin.php(478): WP_Hook->do_action(Array)
#3 /home/customer/www/otw.sinnis-grp.co.uk/public_html/wp-settings.php(523): do_action('init')
#4 /home/customer/www/otw.sinnis-grp.co.uk/public_html/wp-config.php(90): require_once('/home/customer/...')
#5 /home/customer/www/otw.sinnis-grp.co.uk/public_html/wp-load.php(37): require_once('/home/customer/...')
#6 /home/customer/www/otw.sinnis-grp.co.uk/public_html/wp-admin/admin.php(34): require_once('/home/customer/...')
#7 { in /home/customer/www/otw.sinnis-grp.co.uk/public_html/wp-content/plugins/caleader-core/post_type/custom-post-services.php on line 41

2020-03-18T12:30:30+00:00 CRITICAL Uncaught Error: Call to undefined function caleader_options() in /home/customer/www/otw.sinnis-grp.co.uk/public_html/wp-content/plugins/caleader-core/post_type/custom-post-services.php:41
Stack trace:
#0 /home/customer/www/otw.sinnis-grp.co.uk/public_html/wp-includes/class-wp-hook.php(288): CPT_CarLeader_Services->carleader_services_services_post_type('')
#1 /home/customer/www/otw.sinnis-grp.co.uk/public_html/wp-includes/class-wp-hook.php(312): WP_Hook->apply_filters(NULL, Array)
#2 /home/customer/www/otw.sinnis-grp.co.uk/public_html/wp-includes/plugin.php(478): WP_Hook->do_action(Array)
#3 /home/customer/www/otw.sinnis-grp.co.uk/public_html/wp-settings.php(523): do_action('init')
#4 /home/customer/www/otw.sinnis-grp.co.uk/public_html/wp-config.php(90): require_once('/home/customer/...')
#5 /home/customer/www/otw.sinnis-grp.co.uk/public_html/wp-load.php(37): require_once('/home/customer/...')
#6 /home/customer/www/otw.sinnis-grp.co.uk/public_html/wp-admin/admin.php(34): require_once('/home/customer/...')
#7 { in /home/customer/www/otw.sinnis-grp.co.uk/public_html/wp-content/plugins/caleader-core/post_type/custom-post-services.php on line 41

2020-03-18T12:30:35+00:00 CRITICAL Uncaught Error: Call to undefined function caleader_options() in /home/customer/www/otw.sinnis-grp.co.uk/public_html/wp-content/plugins/caleader-core/post_type/custom-post-services.php:41
Stack trace:
#0 /home/customer/www/otw.sinnis-grp.co.uk/public_html/wp-includes/class-wp-hook.php(288): CPT_CarLeader_Services->carleader_services_services_post_type('')
#1 /home/customer/www/otw.sinnis-grp.co.uk/public_html/wp-includes/class-wp-hook.php(312): WP_Hook->apply_filters(NULL, Array)
#2 /home/customer/www/otw.sinnis-grp.co.uk/public_html/wp-includes/plugin.php(478): WP_Hook->do_action(Array)
#3 /home/customer/www/otw.sinnis-grp.co.uk/public_html/wp-settings.php(523): do_action('init')
#4 /home/customer/www/otw.sinnis-grp.co.uk/public_html/wp-config.php(90): require_once('/home/customer/...')
#5 /home/customer/www/otw.sinnis-grp.co.uk/public_html/wp-load.php(37): require_once('/home/customer/...')
#6 /home/customer/www/otw.sinnis-grp.co.uk/public_html/wp-cron.php(44): require_once('/home/customer/...')
#7 {main}
  in /home/customer/www/otw.sinnis-grp.co.uk/public_html/wp-content/plugins/caleader-core/post_type/custom-post-services.php on line 41

2020-03-18T12:30:35+00:00 CRITICAL Uncaught Error: Call to undefined function caleader_options() in /home/customer/www/otw.sinnis-grp.co.uk/public_html/wp-content/plugins/caleader-core/post_type/custom-post-services.php:41
Stack trace:
#0 /home/customer/www/otw.sinnis-grp.co.uk/public_html/wp-includes/class-wp-hook.php(288): CPT_CarLeader_Services->carleader_services_services_post_type('')
#1 /home/customer/www/otw.sinnis-grp.co.uk/public_html/wp-includes/class-wp-hook.php(312): WP_Hook->apply_filters(NULL, Array)
#2 /home/customer/www/otw.sinnis-grp.co.uk/public_html/wp-includes/plugin.php(478): WP_Hook->do_action(Array)
#3 /home/customer/www/otw.sinnis-grp.co.uk/public_html/wp-settings.php(523): do_action('init')
#4 /home/customer/www/otw.sinnis-grp.co.uk/public_html/wp-config.php(90): require_once('/home/customer/...')
#5 /home/customer/www/otw.sinnis-grp.co.uk/public_html/wp-load.php(37): require_once('/home/customer/...')
#6 /home/customer/www/otw.sinnis-grp.co.uk/public_html/wp-admin/admin.php(34): require_once('/home/customer/...')
#7 / in /home/customer/www/otw.sinnis-grp.co.uk/public_html/wp-content/plugins/caleader-core/post_type/custom-post-services.php on line 41

2020-03-18T12:30:39+00:00 CRITICAL Uncaught Error: Call to undefined function caleader_options() in /home/customer/www/otw.sinnis-grp.co.uk/public_html/wp-content/plugins/caleader-core/post_type/custom-post-services.php:41
Stack trace:
#0 /home/customer/www/otw.sinnis-grp.co.uk/public_html/wp-includes/class-wp-hook.php(288): CPT_CarLeader_Services->carleader_services_services_post_type('')
#1 /home/customer/www/otw.sinnis-grp.co.uk/public_html/wp-includes/class-wp-hook.php(312): WP_Hook->apply_filters(NULL, Array)
#2 /home/customer/www/otw.sinnis-grp.co.uk/public_html/wp-includes/plugin.php(478): WP_Hook->do_action(Array)
#3 /home/customer/www/otw.sinnis-grp.co.uk/public_html/wp-settings.php(523): do_action('init')
#4 /home/customer/www/otw.sinnis-grp.co.uk/public_html/wp-config.php(90): require_once('/home/customer/...')
#5 /home/customer/www/otw.sinnis-grp.co.uk/public_html/wp-load.php(37): require_once('/home/customer/...')
#6 /home/customer/www/otw.sinnis-grp.co.uk/public_html/wp-admin/admin.php(34): require_once('/home/customer/...')
#7 / in /home/customer/www/otw.sinnis-grp.co.uk/public_html/wp-content/plugins/caleader-core/post_type/custom-post-services.php on line 41

2020-03-18T12:30:41+00:00 CRITICAL Uncaught Error: Call to undefined function caleader_options() in /home/customer/www/otw.sinnis-grp.co.uk/public_html/wp-content/plugins/caleader-core/post_type/custom-post-services.php:41
Stack trace:
#0 /home/customer/www/otw.sinnis-grp.co.uk/public_html/wp-includes/class-wp-hook.php(288): CPT_CarLeader_Services->carleader_services_services_post_type('')
#1 /home/customer/www/otw.sinnis-grp.co.uk/public_html/wp-includes/class-wp-hook.php(312): WP_Hook->apply_filters(NULL, Array)
#2 /home/customer/www/otw.sinnis-grp.co.uk/public_html/wp-includes/plugin.php(478): WP_Hook->do_action(Array)
#3 /home/customer/www/otw.sinnis-grp.co.uk/public_html/wp-settings.php(523): do_action('init')
#4 /home/customer/www/otw.sinnis-grp.co.uk/public_html/wp-config.php(90): require_once('/home/customer/...')
#5 /home/customer/www/otw.sinnis-grp.co.uk/public_html/wp-load.php(37): require_once('/home/customer/...')
#6 /home/customer/www/otw.sinnis-grp.co.uk/public_html/wp-admin/admin.php(34): require_once('/home/customer/...')
#7 { in /home/customer/www/otw.sinnis-grp.co.uk/public_html/wp-content/plugins/caleader-core/post_type/custom-post-services.php on line 41

2020-03-18T12:30:41+00:00 CRITICAL Uncaught Error: Call to undefined function caleader_options() in /home/customer/www/otw.sinnis-grp.co.uk/public_html/wp-content/plugins/caleader-core/post_type/custom-post-services.php:41
Stack trace:
#0 /home/customer/www/otw.sinnis-grp.co.uk/public_html/wp-includes/class-wp-hook.php(288): CPT_CarLeader_Services->carleader_services_services_post_type('')
#1 /home/customer/www/otw.sinnis-grp.co.uk/public_html/wp-includes/class-wp-hook.php(312): WP_Hook->apply_filters(NULL, Array)
#2 /home/customer/www/otw.sinnis-grp.co.uk/public_html/wp-includes/plugin.php(478): WP_Hook->do_action(Array)
#3 /home/customer/www/otw.sinnis-grp.co.uk/public_html/wp-settings.php(523): do_action('init')
#4 /home/customer/www/otw.sinnis-grp.co.uk/public_html/wp-config.php(90): require_once('/home/customer/...')
#5 /home/customer/www/otw.sinnis-grp.co.uk/public_html/wp-load.php(37): require_once('/home/customer/...')
#6 /home/customer/www/otw.sinnis-grp.co.uk/public_html/wp-admin/admin.php(34): require_once('/home/customer/...')
#7 / in /home/customer/www/otw.sinnis-grp.co.uk/public_html/wp-content/plugins/caleader-core/post_type/custom-post-services.php on line 41

2020-03-18T12:30:43+00:00 CRITICAL Uncaught Error: Call to undefined function caleader_options() in /home/customer/www/otw.sinnis-grp.co.uk/public_html/wp-content/plugins/caleader-core/post_type/custom-post-services.php:41
Stack trace:
#0 /home/customer/www/otw.sinnis-grp.co.uk/public_html/wp-includes/class-wp-hook.php(288): CPT_CarLeader_Services->carleader_services_services_post_type('')
#1 /home/customer/www/otw.sinnis-grp.co.uk/public_html/wp-includes/class-wp-hook.php(312): WP_Hook->apply_filters(NULL, Array)
#2 /home/customer/www/otw.sinnis-grp.co.uk/public_html/wp-includes/plugin.php(478): WP_Hook->do_action(Array)
#3 /home/customer/www/otw.sinnis-grp.co.uk/public_html/wp-settings.php(523): do_action('init')
#4 /home/customer/www/otw.sinnis-grp.co.uk/public_html/wp-config.php(90): require_once('/home/customer/...')
#5 /home/customer/www/otw.sinnis-grp.co.uk/public_html/wp-load.php(37): require_once('/home/customer/...')
#6 /home/customer/www/otw.sinnis-grp.co.uk/public_html/wp-admin/admin-ajax.php(22): require_once('/home/customer/...') in /home/customer/www/otw.sinnis-grp.co.uk/public_html/wp-content/plugins/caleader-core/post_type/custom-post-services.php on line 41

2020-03-18T12:30:52+00:00 CRITICAL Uncaught Error: Call to undefined function caleader_options() in /home/customer/www/otw.sinnis-grp.co.uk/public_html/wp-content/plugins/caleader-core/post_type/custom-post-services.php:41
Stack trace:
#0 /home/customer/www/otw.sinnis-grp.co.uk/public_html/wp-includes/class-wp-hook.php(288): CPT_CarLeader_Services->carleader_services_services_post_type('')
#1 /home/customer/www/otw.sinnis-grp.co.uk/public_html/wp-includes/class-wp-hook.php(312): WP_Hook->apply_filters(NULL, Array)
#2 /home/customer/www/otw.sinnis-grp.co.uk/public_html/wp-includes/plugin.php(478): WP_Hook->do_action(Array)
#3 /home/customer/www/otw.sinnis-grp.co.uk/public_html/wp-settings.php(523): do_action('init')
#4 /home/customer/www/otw.sinnis-grp.co.uk/public_html/wp-config.php(90): require_once('/home/customer/...')
#5 /home/customer/www/otw.sinnis-grp.co.uk/public_html/wp-load.php(37): require_once('/home/customer/...')
#6 /home/customer/www/otw.sinnis-grp.co.uk/public_html/wp-blog-header.php(13): require_once('/home/customer/...')
#7 / in /home/customer/www/otw.sinnis-grp.co.uk/public_html/wp-content/plugins/caleader-core/post_type/custom-post-services.php on line 41

2020-03-18T12:30:54+00:00 CRITICAL Uncaught Error: Call to undefined function caleader_options() in /home/customer/www/otw.sinnis-grp.co.uk/public_html/wp-content/plugins/caleader-core/post_type/custom-post-services.php:41
Stack trace:
#0 /home/customer/www/otw.sinnis-grp.co.uk/public_html/wp-includes/class-wp-hook.php(288): CPT_CarLeader_Services->carleader_services_services_post_type('')
#1 /home/customer/www/otw.sinnis-grp.co.uk/public_html/wp-includes/class-wp-hook.php(312): WP_Hook->apply_filters(NULL, Array)
#2 /home/customer/www/otw.sinnis-grp.co.uk/public_html/wp-includes/plugin.php(478): WP_Hook->do_action(Array)
#3 /home/customer/www/otw.sinnis-grp.co.uk/public_html/wp-settings.php(523): do_action('init')
#4 /home/customer/www/otw.sinnis-grp.co.uk/public_html/wp-config.php(90): require_once('/home/customer/...')
#5 /home/customer/www/otw.sinnis-grp.co.uk/public_html/wp-load.php(37): require_once('/home/customer/...')
#6 /home/customer/www/otw.sinnis-grp.co.uk/public_html/wp-admin/admin-ajax.php(22): require_once('/home/customer/...') in /home/customer/www/otw.sinnis-grp.co.uk/public_html/wp-content/plugins/caleader-core/post_type/custom-post-services.php on line 41

2020-03-18T12:30:55+00:00 CRITICAL Uncaught Error: Call to undefined function caleader_options() in /home/customer/www/otw.sinnis-grp.co.uk/public_html/wp-content/plugins/caleader-core/post_type/custom-post-services.php:41
Stack trace:
#0 /home/customer/www/otw.sinnis-grp.co.uk/public_html/wp-includes/class-wp-hook.php(288): CPT_CarLeader_Services->carleader_services_services_post_type('')
#1 /home/customer/www/otw.sinnis-grp.co.uk/public_html/wp-includes/class-wp-hook.php(312): WP_Hook->apply_filters(NULL, Array)
#2 /home/customer/www/otw.sinnis-grp.co.uk/public_html/wp-includes/plugin.php(478): WP_Hook->do_action(Array)
#3 /home/customer/www/otw.sinnis-grp.co.uk/public_html/wp-settings.php(523): do_action('init')
#4 /home/customer/www/otw.sinnis-grp.co.uk/public_html/wp-config.php(90): require_once('/home/customer/...')
#5 /home/customer/www/otw.sinnis-grp.co.uk/public_html/wp-load.php(37): require_once('/home/customer/...')
#6 /home/customer/www/otw.sinnis-grp.co.uk/public_html/wp-admin/admin.php(34): require_once('/home/customer/...')
#7 / in /home/customer/www/otw.sinnis-grp.co.uk/public_html/wp-content/plugins/caleader-core/post_type/custom-post-services.php on line 41

2020-03-18T12:30:56+00:00 CRITICAL Uncaught Error: Call to undefined function caleader_options() in /home/customer/www/otw.sinnis-grp.co.uk/public_html/wp-content/plugins/caleader-core/post_type/custom-post-services.php:41
Stack trace:
#0 /home/customer/www/otw.sinnis-grp.co.uk/public_html/wp-includes/class-wp-hook.php(288): CPT_CarLeader_Services->carleader_services_services_post_type('')
#1 /home/customer/www/otw.sinnis-grp.co.uk/public_html/wp-includes/class-wp-hook.php(312): WP_Hook->apply_filters(NULL, Array)
#2 /home/customer/www/otw.sinnis-grp.co.uk/public_html/wp-includes/plugin.php(478): WP_Hook->do_action(Array)
#3 /home/customer/www/otw.sinnis-grp.co.uk/public_html/wp-settings.php(523): do_action('init')
#4 /home/customer/www/otw.sinnis-grp.co.uk/public_html/wp-config.php(90): require_once('/home/customer/...')
#5 /home/customer/www/otw.sinnis-grp.co.uk/public_html/wp-load.php(37): require_once('/home/customer/...')
#6 /home/customer/www/otw.sinnis-grp.co.uk/public_html/wp-admin/admin.php(34): require_once('/home/customer/...')
#7 { in /home/customer/www/otw.sinnis-grp.co.uk/public_html/wp-content/plugins/caleader-core/post_type/custom-post-services.php on line 41

2020-03-18T12:30:57+00:00 CRITICAL Uncaught Error: Call to undefined function caleader_options() in /home/customer/www/otw.sinnis-grp.co.uk/public_html/wp-content/plugins/caleader-core/post_type/custom-post-services.php:41
Stack trace:
#0 /home/customer/www/otw.sinnis-grp.co.uk/public_html/wp-includes/class-wp-hook.php(288): CPT_CarLeader_Services->carleader_services_services_post_type('')
#1 /home/customer/www/otw.sinnis-grp.co.uk/public_html/wp-includes/class-wp-hook.php(312): WP_Hook->apply_filters(NULL, Array)
#2 /home/customer/www/otw.sinnis-grp.co.uk/public_html/wp-includes/plugin.php(478): WP_Hook->do_action(Array)
#3 /home/customer/www/otw.sinnis-grp.co.uk/public_html/wp-settings.php(523): do_action('init')
#4 /home/customer/www/otw.sinnis-grp.co.uk/public_html/wp-config.php(90): require_once('/home/customer/...')
#5 /home/customer/www/otw.sinnis-grp.co.uk/public_html/wp-load.php(37): require_once('/home/customer/...')
#6 /home/customer/www/otw.sinnis-grp.co.uk/public_html/wp-admin/admin.php(34): require_once('/home/customer/...')
#7 { in /home/customer/www/otw.sinnis-grp.co.uk/public_html/wp-content/plugins/caleader-core/post_type/custom-post-services.php on line 41

2020-03-18T12:30:58+00:00 CRITICAL Uncaught Error: Call to undefined function caleader_options() in /home/customer/www/otw.sinnis-grp.co.uk/public_html/wp-content/plugins/caleader-core/post_type/custom-post-services.php:41
Stack trace:
#0 /home/customer/www/otw.sinnis-grp.co.uk/public_html/wp-includes/class-wp-hook.php(288): CPT_CarLeader_Services->carleader_services_services_post_type('')
#1 /home/customer/www/otw.sinnis-grp.co.uk/public_html/wp-includes/class-wp-hook.php(312): WP_Hook->apply_filters(NULL, Array)
#2 /home/customer/www/otw.sinnis-grp.co.uk/public_html/wp-includes/plugin.php(478): WP_Hook->do_action(Array)
#3 /home/customer/www/otw.sinnis-grp.co.uk/public_html/wp-settings.php(523): do_action('init')
#4 /home/customer/www/otw.sinnis-grp.co.uk/public_html/wp-config.php(90): require_once('/home/customer/...')
#5 /home/customer/www/otw.sinnis-grp.co.uk/public_html/wp-load.php(37): require_once('/home/customer/...')
#6 /home/customer/www/otw.sinnis-grp.co.uk/public_html/wp-admin/admin.php(34): require_once('/home/customer/...')
#7 / in /home/customer/www/otw.sinnis-grp.co.uk/public_html/wp-content/plugins/caleader-core/post_type/custom-post-services.php on line 41

2020-03-18T12:30:59+00:00 CRITICAL Uncaught Error: Call to undefined function caleader_options() in /home/customer/www/otw.sinnis-grp.co.uk/public_html/wp-content/plugins/caleader-core/post_type/custom-post-services.php:41
Stack trace:
#0 /home/customer/www/otw.sinnis-grp.co.uk/public_html/wp-includes/class-wp-hook.php(288): CPT_CarLeader_Services->carleader_services_services_post_type('')
#1 /home/customer/www/otw.sinnis-grp.co.uk/public_html/wp-includes/class-wp-hook.php(312): WP_Hook->apply_filters(NULL, Array)
#2 /home/customer/www/otw.sinnis-grp.co.uk/public_html/wp-includes/plugin.php(478): WP_Hook->do_action(Array)
#3 /home/customer/www/otw.sinnis-grp.co.uk/public_html/wp-settings.php(523): do_action('init')
#4 /home/customer/www/otw.sinnis-grp.co.uk/public_html/wp-config.php(90): require_once('/home/customer/...')
#5 /home/customer/www/otw.sinnis-grp.co.uk/public_html/wp-load.php(37): require_once('/home/customer/...')
#6 /home/customer/www/otw.sinnis-grp.co.uk/public_html/wp-admin/admin.php(34): require_once('/home/customer/...')
#7 / in /home/customer/www/otw.sinnis-grp.co.uk/public_html/wp-content/plugins/caleader-core/post_type/custom-post-services.php on line 41

2020-03-18T12:31:00+00:00 CRITICAL Uncaught Error: Call to undefined function caleader_options() in /home/customer/www/otw.sinnis-grp.co.uk/public_html/wp-content/plugins/caleader-core/post_type/custom-post-services.php:41
Stack trace:
#0 /home/customer/www/otw.sinnis-grp.co.uk/public_html/wp-includes/class-wp-hook.php(288): CPT_CarLeader_Services->carleader_services_services_post_type('')
#1 /home/customer/www/otw.sinnis-grp.co.uk/public_html/wp-includes/class-wp-hook.php(312): WP_Hook->apply_filters(NULL, Array)
#2 /home/customer/www/otw.sinnis-grp.co.uk/public_html/wp-includes/plugin.php(478): WP_Hook->do_action(Array)
#3 /home/customer/www/otw.sinnis-grp.co.uk/public_html/wp-settings.php(523): do_action('init')
#4 /home/customer/www/otw.sinnis-grp.co.uk/public_html/wp-config.php(90): require_once('/home/customer/...')
#5 /home/customer/www/otw.sinnis-grp.co.uk/public_html/wp-load.php(37): require_once('/home/customer/...')
#6 /home/customer/www/otw.sinnis-grp.co.uk/public_html/wp-admin/admin.php(34): require_once('/home/customer/...')
#7 / in /home/customer/www/otw.sinnis-grp.co.uk/public_html/wp-content/plugins/caleader-core/post_type/custom-post-services.php on line 41

2020-03-18T12:31:03+00:00 CRITICAL Uncaught Error: Call to undefined function caleader_options() in /home/customer/www/otw.sinnis-grp.co.uk/public_html/wp-content/plugins/caleader-core/post_type/custom-post-services.php:41
Stack trace:
#0 /home/customer/www/otw.sinnis-grp.co.uk/public_html/wp-includes/class-wp-hook.php(288): CPT_CarLeader_Services->carleader_services_services_post_type('')
#1 /home/customer/www/otw.sinnis-grp.co.uk/public_html/wp-includes/class-wp-hook.php(312): WP_Hook->apply_filters(NULL, Array)
#2 /home/customer/www/otw.sinnis-grp.co.uk/public_html/wp-includes/plugin.php(478): WP_Hook->do_action(Array)
#3 /home/customer/www/otw.sinnis-grp.co.uk/public_html/wp-settings.php(523): do_action('init')
#4 /home/customer/www/otw.sinnis-grp.co.uk/public_html/wp-config.php(90): require_once('/home/customer/...')
#5 /home/customer/www/otw.sinnis-grp.co.uk/public_html/wp-load.php(37): require_once('/home/customer/...')
#6 /home/customer/www/otw.sinnis-grp.co.uk/public_html/wp-admin/admin-ajax.php(22): require_once('/home/customer/...') in /home/customer/www/otw.sinnis-grp.co.uk/public_html/wp-content/plugins/caleader-core/post_type/custom-post-services.php on line 41

2020-03-18T12:31:08+00:00 CRITICAL Uncaught Error: Call to undefined function caleader_options() in /home/customer/www/otw.sinnis-grp.co.uk/public_html/wp-content/plugins/caleader-core/post_type/custom-post-services.php:41
Stack trace:
#0 /home/customer/www/otw.sinnis-grp.co.uk/public_html/wp-includes/class-wp-hook.php(288): CPT_CarLeader_Services->carleader_services_services_post_type('')
#1 /home/customer/www/otw.sinnis-grp.co.uk/public_html/wp-includes/class-wp-hook.php(312): WP_Hook->apply_filters(NULL, Array)
#2 /home/customer/www/otw.sinnis-grp.co.uk/public_html/wp-includes/plugin.php(478): WP_Hook->do_action(Array)
#3 /home/customer/www/otw.sinnis-grp.co.uk/public_html/wp-settings.php(523): do_action('init')
#4 /home/customer/www/otw.sinnis-grp.co.uk/public_html/wp-config.php(90): require_once('/home/customer/...')
#5 /home/customer/www/otw.sinnis-grp.co.uk/public_html/wp-load.php(37): require_once('/home/customer/...')
#6 /home/customer/www/otw.sinnis-grp.co.uk/public_html/wp-admin/admin.php(34): require_once('/home/customer/...')
#7 / in /home/customer/www/otw.sinnis-grp.co.uk/public_html/wp-content/plugins/caleader-core/post_type/custom-post-services.php on line 41

2020-03-18T12:31:11+00:00 CRITICAL Uncaught Error: Call to undefined function caleader_options() in /home/customer/www/otw.sinnis-grp.co.uk/public_html/wp-content/plugins/caleader-core/post_type/custom-post-services.php:41
Stack trace:
#0 /home/customer/www/otw.sinnis-grp.co.uk/public_html/wp-includes/class-wp-hook.php(288): CPT_CarLeader_Services->carleader_services_services_post_type('')
#1 /home/customer/www/otw.sinnis-grp.co.uk/public_html/wp-includes/class-wp-hook.php(312): WP_Hook->apply_filters(NULL, Array)
#2 /home/customer/www/otw.sinnis-grp.co.uk/public_html/wp-includes/plugin.php(478): WP_Hook->do_action(Array)
#3 /home/customer/www/otw.sinnis-grp.co.uk/public_html/wp-settings.php(523): do_action('init')
#4 /home/customer/www/otw.sinnis-grp.co.uk/public_html/wp-config.php(90): require_once('/home/customer/...')
#5 /home/customer/www/otw.sinnis-grp.co.uk/public_html/wp-load.php(37): require_once('/home/customer/...')
#6 /home/customer/www/otw.sinnis-grp.co.uk/public_html/wp-admin/admin-ajax.php(22): require_once('/home/customer/...') in /home/customer/www/otw.sinnis-grp.co.uk/public_html/wp-content/plugins/caleader-core/post_type/custom-post-services.php on line 41

2020-03-18T12:31:30+00:00 CRITICAL Uncaught Error: Call to undefined function caleader_options() in /home/customer/www/otw.sinnis-grp.co.uk/public_html/wp-content/plugins/caleader-core/post_type/custom-post-services.php:41
Stack trace:
#0 /home/customer/www/otw.sinnis-grp.co.uk/public_html/wp-includes/class-wp-hook.php(288): CPT_CarLeader_Services->carleader_services_services_post_type('')
#1 /home/customer/www/otw.sinnis-grp.co.uk/public_html/wp-includes/class-wp-hook.php(312): WP_Hook->apply_filters(NULL, Array)
#2 /home/customer/www/otw.sinnis-grp.co.uk/public_html/wp-includes/plugin.php(478): WP_Hook->do_action(Array)
#3 /home/customer/www/otw.sinnis-grp.co.uk/public_html/wp-settings.php(523): do_action('init')
#4 /home/customer/www/otw.sinnis-grp.co.uk/public_html/wp-config.php(90): require_once('/home/customer/...')
#5 /home/customer/www/otw.sinnis-grp.co.uk/public_html/wp-load.php(37): require_once('/home/customer/...')
#6 /home/customer/www/otw.sinnis-grp.co.uk/public_html/wp-admin/admin.php(34): require_once('/home/customer/...')
#7 / in /home/customer/www/otw.sinnis-grp.co.uk/public_html/wp-content/plugins/caleader-core/post_type/custom-post-services.php on line 41

2020-03-18T12:31:38+00:00 CRITICAL Uncaught Error: Call to undefined function caleader_options() in /home/customer/www/otw.sinnis-grp.co.uk/public_html/wp-content/plugins/caleader-core/post_type/custom-post-services.php:41
Stack trace:
#0 /home/customer/www/otw.sinnis-grp.co.uk/public_html/wp-includes/class-wp-hook.php(288): CPT_CarLeader_Services->carleader_services_services_post_type('')
#1 /home/customer/www/otw.sinnis-grp.co.uk/public_html/wp-includes/class-wp-hook.php(312): WP_Hook->apply_filters(NULL, Array)
#2 /home/customer/www/otw.sinnis-grp.co.uk/public_html/wp-includes/plugin.php(478): WP_Hook->do_action(Array)
#3 /home/customer/www/otw.sinnis-grp.co.uk/public_html/wp-settings.php(523): do_action('init')
#4 /home/customer/www/otw.sinnis-grp.co.uk/public_html/wp-config.php(90): require_once('/home/customer/...')
#5 /home/customer/www/otw.sinnis-grp.co.uk/public_html/wp-load.php(37): require_once('/home/customer/...')
#6 /home/customer/www/otw.sinnis-grp.co.uk/public_html/wp-cron.php(44): require_once('/home/customer/...')
#7 {main}
  in /home/customer/www/otw.sinnis-grp.co.uk/public_html/wp-content/plugins/caleader-core/post_type/custom-post-services.php on line 41

2020-03-18T12:31:38+00:00 CRITICAL Uncaught Error: Call to undefined function caleader_options() in /home/customer/www/otw.sinnis-grp.co.uk/public_html/wp-content/plugins/caleader-core/post_type/custom-post-services.php:41
Stack trace:
#0 /home/customer/www/otw.sinnis-grp.co.uk/public_html/wp-includes/class-wp-hook.php(288): CPT_CarLeader_Services->carleader_services_services_post_type('')
#1 /home/customer/www/otw.sinnis-grp.co.uk/public_html/wp-includes/class-wp-hook.php(312): WP_Hook->apply_filters(NULL, Array)
#2 /home/customer/www/otw.sinnis-grp.co.uk/public_html/wp-includes/plugin.php(478): WP_Hook->do_action(Array)
#3 /home/customer/www/otw.sinnis-grp.co.uk/public_html/wp-settings.php(523): do_action('init')
#4 /home/customer/www/otw.sinnis-grp.co.uk/public_html/wp-config.php(90): require_once('/home/customer/...')
#5 /home/customer/www/otw.sinnis-grp.co.uk/public_html/wp-load.php(37): require_once('/home/customer/...')
#6 /home/customer/www/otw.sinnis-grp.co.uk/public_html/wp-admin/admin-ajax.php(22): require_once('/home/customer/...') in /home/customer/www/otw.sinnis-grp.co.uk/public_html/wp-content/plugins/caleader-core/post_type/custom-post-services.php on line 41

2020-03-18T12:31:41+00:00 CRITICAL Uncaught Error: Call to undefined function caleader_options() in /home/customer/www/otw.sinnis-grp.co.uk/public_html/wp-content/plugins/caleader-core/post_type/custom-post-services.php:41
Stack trace:
#0 /home/customer/www/otw.sinnis-grp.co.uk/public_html/wp-includes/class-wp-hook.php(288): CPT_CarLeader_Services->carleader_services_services_post_type('')
#1 /home/customer/www/otw.sinnis-grp.co.uk/public_html/wp-includes/class-wp-hook.php(312): WP_Hook->apply_filters(NULL, Array)
#2 /home/customer/www/otw.sinnis-grp.co.uk/public_html/wp-includes/plugin.php(478): WP_Hook->do_action(Array)
#3 /home/customer/www/otw.sinnis-grp.co.uk/public_html/wp-settings.php(523): do_action('init')
#4 /home/customer/www/otw.sinnis-grp.co.uk/public_html/wp-config.php(90): require_once('/home/customer/...')
#5 /home/customer/www/otw.sinnis-grp.co.uk/public_html/wp-load.php(37): require_once('/home/customer/...')
#6 /home/customer/www/otw.sinnis-grp.co.uk/public_html/wp-admin/admin.php(34): require_once('/home/customer/...')
#7 / in /home/customer/www/otw.sinnis-grp.co.uk/public_html/wp-content/plugins/caleader-core/post_type/custom-post-services.php on line 41

2020-03-18T12:31:42+00:00 CRITICAL Uncaught Error: Call to undefined function caleader_options() in /home/customer/www/otw.sinnis-grp.co.uk/public_html/wp-content/plugins/caleader-core/post_type/custom-post-services.php:41
Stack trace:
#0 /home/customer/www/otw.sinnis-grp.co.uk/public_html/wp-includes/class-wp-hook.php(288): CPT_CarLeader_Services->carleader_services_services_post_type('')
#1 /home/customer/www/otw.sinnis-grp.co.uk/public_html/wp-includes/class-wp-hook.php(312): WP_Hook->apply_filters(NULL, Array)
#2 /home/customer/www/otw.sinnis-grp.co.uk/public_html/wp-includes/plugin.php(478): WP_Hook->do_action(Array)
#3 /home/customer/www/otw.sinnis-grp.co.uk/public_html/wp-settings.php(523): do_action('init')
#4 /home/customer/www/otw.sinnis-grp.co.uk/public_html/wp-config.php(90): require_once('/home/customer/...')
#5 /home/customer/www/otw.sinnis-grp.co.uk/public_html/wp-load.php(37): require_once('/home/customer/...')
#6 /home/customer/www/otw.sinnis-grp.co.uk/public_html/wp-admin/admin-ajax.php(22): require_once('/home/customer/...') in /home/customer/www/otw.sinnis-grp.co.uk/public_html/wp-content/plugins/caleader-core/post_type/custom-post-services.php on line 41

2020-03-18T12:32:20+00:00 CRITICAL Uncaught Error: Call to undefined function caleader_options() in /home/customer/www/otw.sinnis-grp.co.uk/public_html/wp-content/plugins/caleader-core/post_type/custom-post-services.php:41
Stack trace:
#0 /home/customer/www/otw.sinnis-grp.co.uk/public_html/wp-includes/class-wp-hook.php(288): CPT_CarLeader_Services->carleader_services_services_post_type('')
#1 /home/customer/www/otw.sinnis-grp.co.uk/public_html/wp-includes/class-wp-hook.php(312): WP_Hook->apply_filters(NULL, Array)
#2 /home/customer/www/otw.sinnis-grp.co.uk/public_html/wp-includes/plugin.php(478): WP_Hook->do_action(Array)
#3 /home/customer/www/otw.sinnis-grp.co.uk/public_html/wp-settings.php(523): do_action('init')
#4 /home/customer/www/otw.sinnis-grp.co.uk/public_html/wp-config.php(90): require_once('/home/customer/...')
#5 /home/customer/www/otw.sinnis-grp.co.uk/public_html/wp-load.php(37): require_once('/home/customer/...')
#6 /home/customer/www/otw.sinnis-grp.co.uk/public_html/wp-admin/admin.php(34): require_once('/home/customer/...')
#7 / in /home/customer/www/otw.sinnis-grp.co.uk/public_html/wp-content/plugins/caleader-core/post_type/custom-post-services.php on line 41

2020-03-18T12:32:31+00:00 CRITICAL Uncaught Error: Call to undefined function caleader_options() in /home/customer/www/otw.sinnis-grp.co.uk/public_html/wp-content/plugins/caleader-core/post_type/custom-post-services.php:41
Stack trace:
#0 /home/customer/www/otw.sinnis-grp.co.uk/public_html/wp-includes/class-wp-hook.php(288): CPT_CarLeader_Services->carleader_services_services_post_type('')
#1 /home/customer/www/otw.sinnis-grp.co.uk/public_html/wp-includes/class-wp-hook.php(312): WP_Hook->apply_filters(NULL, Array)
#2 /home/customer/www/otw.sinnis-grp.co.uk/public_html/wp-includes/plugin.php(478): WP_Hook->do_action(Array)
#3 /home/customer/www/otw.sinnis-grp.co.uk/public_html/wp-settings.php(523): do_action('init')
#4 /home/customer/www/otw.sinnis-grp.co.uk/public_html/wp-config.php(90): require_once('/home/customer/...')
#5 /home/customer/www/otw.sinnis-grp.co.uk/public_html/wp-load.php(37): require_once('/home/customer/...')
#6 /home/customer/www/otw.sinnis-grp.co.uk/public_html/wp-admin/admin.php(34): require_once('/home/customer/...')
#7 / in /home/customer/www/otw.sinnis-grp.co.uk/public_html/wp-content/plugins/caleader-core/post_type/custom-post-services.php on line 41

2020-03-18T12:32:32+00:00 CRITICAL Uncaught Error: Call to undefined function caleader_options() in /home/customer/www/otw.sinnis-grp.co.uk/public_html/wp-content/plugins/caleader-core/post_type/custom-post-services.php:41
Stack trace:
#0 /home/customer/www/otw.sinnis-grp.co.uk/public_html/wp-includes/class-wp-hook.php(288): CPT_CarLeader_Services->carleader_services_services_post_type('')
#1 /home/customer/www/otw.sinnis-grp.co.uk/public_html/wp-includes/class-wp-hook.php(312): WP_Hook->apply_filters(NULL, Array)
#2 /home/customer/www/otw.sinnis-grp.co.uk/public_html/wp-includes/plugin.php(478): WP_Hook->do_action(Array)
#3 /home/customer/www/otw.sinnis-grp.co.uk/public_html/wp-settings.php(523): do_action('init')
#4 /home/customer/www/otw.sinnis-grp.co.uk/public_html/wp-config.php(90): require_once('/home/customer/...')
#5 /home/customer/www/otw.sinnis-grp.co.uk/public_html/wp-load.php(37): require_once('/home/customer/...')
#6 /home/customer/www/otw.sinnis-grp.co.uk/public_html/wp-admin/admin.php(34): require_once('/home/customer/...')
#7 / in /home/customer/www/otw.sinnis-grp.co.uk/public_html/wp-content/plugins/caleader-core/post_type/custom-post-services.php on line 41

2020-03-18T12:32:34+00:00 CRITICAL Uncaught Error: Call to undefined function caleader_options() in /home/customer/www/otw.sinnis-grp.co.uk/public_html/wp-content/plugins/caleader-core/post_type/custom-post-services.php:41
Stack trace:
#0 /home/customer/www/otw.sinnis-grp.co.uk/public_html/wp-includes/class-wp-hook.php(288): CPT_CarLeader_Services->carleader_services_services_post_type('')
#1 /home/customer/www/otw.sinnis-grp.co.uk/public_html/wp-includes/class-wp-hook.php(312): WP_Hook->apply_filters(NULL, Array)
#2 /home/customer/www/otw.sinnis-grp.co.uk/public_html/wp-includes/plugin.php(478): WP_Hook->do_action(Array)
#3 /home/customer/www/otw.sinnis-grp.co.uk/public_html/wp-settings.php(523): do_action('init')
#4 /home/customer/www/otw.sinnis-grp.co.uk/public_html/wp-config.php(90): require_once('/home/customer/...')
#5 /home/customer/www/otw.sinnis-grp.co.uk/public_html/wp-load.php(37): require_once('/home/customer/...')
#6 /home/customer/www/otw.sinnis-grp.co.uk/public_html/wp-admin/admin.php(34): require_once('/home/customer/...')
#7 / in /home/customer/www/otw.sinnis-grp.co.uk/public_html/wp-content/plugins/caleader-core/post_type/custom-post-services.php on line 41

2020-03-18T12:32:47+00:00 CRITICAL Uncaught Error: Call to undefined function caleader_options() in /home/customer/www/otw.sinnis-grp.co.uk/public_html/wp-content/plugins/caleader-core/post_type/custom-post-services.php:41
Stack trace:
#0 /home/customer/www/otw.sinnis-grp.co.uk/public_html/wp-includes/class-wp-hook.php(288): CPT_CarLeader_Services->carleader_services_services_post_type('')
#1 /home/customer/www/otw.sinnis-grp.co.uk/public_html/wp-includes/class-wp-hook.php(312): WP_Hook->apply_filters(NULL, Array)
#2 /home/customer/www/otw.sinnis-grp.co.uk/public_html/wp-includes/plugin.php(478): WP_Hook->do_action(Array)
#3 /home/customer/www/otw.sinnis-grp.co.uk/public_html/wp-settings.php(523): do_action('init')
#4 /home/customer/www/otw.sinnis-grp.co.uk/public_html/wp-config.php(90): require_once('/home/customer/...')
#5 /home/customer/www/otw.sinnis-grp.co.uk/public_html/wp-load.php(37): require_once('/home/customer/...')
#6 /home/customer/www/otw.sinnis-grp.co.uk/public_html/wp-cron.php(44): require_once('/home/customer/...')
#7 {main}
  in /home/customer/www/otw.sinnis-grp.co.uk/public_html/wp-content/plugins/caleader-core/post_type/custom-post-services.php on line 41

2020-03-18T12:32:47+00:00 CRITICAL Uncaught Error: Call to undefined function caleader_options() in /home/customer/www/otw.sinnis-grp.co.uk/public_html/wp-content/plugins/caleader-core/post_type/custom-post-services.php:41
Stack trace:
#0 /home/customer/www/otw.sinnis-grp.co.uk/public_html/wp-includes/class-wp-hook.php(288): CPT_CarLeader_Services->carleader_services_services_post_type('')
#1 /home/customer/www/otw.sinnis-grp.co.uk/public_html/wp-includes/class-wp-hook.php(312): WP_Hook->apply_filters(NULL, Array)
#2 /home/customer/www/otw.sinnis-grp.co.uk/public_html/wp-includes/plugin.php(478): WP_Hook->do_action(Array)
#3 /home/customer/www/otw.sinnis-grp.co.uk/public_html/wp-settings.php(523): do_action('init')
#4 /home/customer/www/otw.sinnis-grp.co.uk/public_html/wp-config.php(90): require_once('/home/customer/...')
#5 /home/customer/www/otw.sinnis-grp.co.uk/public_html/wp-load.php(37): require_once('/home/customer/...')
#6 /home/customer/www/otw.sinnis-grp.co.uk/public_html/wp-admin/admin.php(34): require_once('/home/customer/...')
#7 / in /home/customer/www/otw.sinnis-grp.co.uk/public_html/wp-content/plugins/caleader-core/post_type/custom-post-services.php on line 41

2020-03-18T12:32:52+00:00 CRITICAL Uncaught Error: Call to undefined function caleader_options() in /home/customer/www/otw.sinnis-grp.co.uk/public_html/wp-content/plugins/caleader-core/post_type/custom-post-services.php:41
Stack trace:
#0 /home/customer/www/otw.sinnis-grp.co.uk/public_html/wp-includes/class-wp-hook.php(288): CPT_CarLeader_Services->carleader_services_services_post_type('')
#1 /home/customer/www/otw.sinnis-grp.co.uk/public_html/wp-includes/class-wp-hook.php(312): WP_Hook->apply_filters(NULL, Array)
#2 /home/customer/www/otw.sinnis-grp.co.uk/public_html/wp-includes/plugin.php(478): WP_Hook->do_action(Array)
#3 /home/customer/www/otw.sinnis-grp.co.uk/public_html/wp-settings.php(523): do_action('init')
#4 /home/customer/www/otw.sinnis-grp.co.uk/public_html/wp-config.php(90): require_once('/home/customer/...')
#5 /home/customer/www/otw.sinnis-grp.co.uk/public_html/wp-load.php(37): require_once('/home/customer/...')
#6 /home/customer/www/otw.sinnis-grp.co.uk/public_html/wp-blog-header.php(13): require_once('/home/customer/...')
#7 / in /home/customer/www/otw.sinnis-grp.co.uk/public_html/wp-content/plugins/caleader-core/post_type/custom-post-services.php on line 41

2020-03-18T12:32:55+00:00 CRITICAL Uncaught Error: Call to undefined function caleader_options() in /home/customer/www/otw.sinnis-grp.co.uk/public_html/wp-content/plugins/caleader-core/post_type/custom-post-services.php:41
Stack trace:
#0 /home/customer/www/otw.sinnis-grp.co.uk/public_html/wp-includes/class-wp-hook.php(288): CPT_CarLeader_Services->carleader_services_services_post_type('')
#1 /home/customer/www/otw.sinnis-grp.co.uk/public_html/wp-includes/class-wp-hook.php(312): WP_Hook->apply_filters(NULL, Array)
#2 /home/customer/www/otw.sinnis-grp.co.uk/public_html/wp-includes/plugin.php(478): WP_Hook->do_action(Array)
#3 /home/customer/www/otw.sinnis-grp.co.uk/public_html/wp-settings.php(523): do_action('init')
#4 /home/customer/www/otw.sinnis-grp.co.uk/public_html/wp-config.php(90): require_once('/home/customer/...')
#5 /home/customer/www/otw.sinnis-grp.co.uk/public_html/wp-load.php(37): require_once('/home/customer/...')
#6 /home/customer/www/otw.sinnis-grp.co.uk/public_html/wp-admin/admin.php(34): require_once('/home/customer/...')
#7 / in /home/customer/www/otw.sinnis-grp.co.uk/public_html/wp-content/plugins/caleader-core/post_type/custom-post-services.php on line 41

2020-03-18T12:33:31+00:00 CRITICAL Uncaught Error: Call to undefined function caleader_options() in /home/customer/www/otw.sinnis-grp.co.uk/public_html/wp-content/plugins/caleader-core/post_type/custom-post-services.php:41
Stack trace:
#0 /home/customer/www/otw.sinnis-grp.co.uk/public_html/wp-includes/class-wp-hook.php(288): CPT_CarLeader_Services->carleader_services_services_post_type('')
#1 /home/customer/www/otw.sinnis-grp.co.uk/public_html/wp-includes/class-wp-hook.php(312): WP_Hook->apply_filters(NULL, Array)
#2 /home/customer/www/otw.sinnis-grp.co.uk/public_html/wp-includes/plugin.php(478): WP_Hook->do_action(Array)
#3 /home/customer/www/otw.sinnis-grp.co.uk/public_html/wp-settings.php(523): do_action('init')
#4 /home/customer/www/otw.sinnis-grp.co.uk/public_html/wp-config.php(90): require_once('/home/customer/...')
#5 /home/customer/www/otw.sinnis-grp.co.uk/public_html/wp-load.php(37): require_once('/home/customer/...')
#6 /home/customer/www/otw.sinnis-grp.co.uk/public_html/wp-admin/admin.php(34): require_once('/home/customer/...')
#7 / in /home/customer/www/otw.sinnis-grp.co.uk/public_html/wp-content/plugins/caleader-core/post_type/custom-post-services.php on line 41

2020-03-18T12:33:36+00:00 CRITICAL Uncaught Error: Call to undefined function caleader_options() in /home/customer/www/otw.sinnis-grp.co.uk/public_html/wp-content/plugins/caleader-core/post_type/custom-post-services.php:41
Stack trace:
#0 /home/customer/www/otw.sinnis-grp.co.uk/public_html/wp-includes/class-wp-hook.php(288): CPT_CarLeader_Services->carleader_services_services_post_type('')
#1 /home/customer/www/otw.sinnis-grp.co.uk/public_html/wp-includes/class-wp-hook.php(312): WP_Hook->apply_filters(NULL, Array)
#2 /home/customer/www/otw.sinnis-grp.co.uk/public_html/wp-includes/plugin.php(478): WP_Hook->do_action(Array)
#3 /home/customer/www/otw.sinnis-grp.co.uk/public_html/wp-settings.php(523): do_action('init')
#4 /home/customer/www/otw.sinnis-grp.co.uk/public_html/wp-config.php(90): require_once('/home/customer/...')
#5 /home/customer/www/otw.sinnis-grp.co.uk/public_html/wp-load.php(37): require_once('/home/customer/...')
#6 /home/customer/www/otw.sinnis-grp.co.uk/public_html/wp-blog-header.php(13): require_once('/home/customer/...')
#7 / in /home/customer/www/otw.sinnis-grp.co.uk/public_html/wp-content/plugins/caleader-core/post_type/custom-post-services.php on line 41

2020-03-18T12:33:37+00:00 CRITICAL Uncaught Error: Call to undefined function caleader_options() in /home/customer/www/otw.sinnis-grp.co.uk/public_html/wp-content/plugins/caleader-core/post_type/custom-post-services.php:41
Stack trace:
#0 /home/customer/www/otw.sinnis-grp.co.uk/public_html/wp-includes/class-wp-hook.php(288): CPT_CarLeader_Services->carleader_services_services_post_type('')
#1 /home/customer/www/otw.sinnis-grp.co.uk/public_html/wp-includes/class-wp-hook.php(312): WP_Hook->apply_filters(NULL, Array)
#2 /home/customer/www/otw.sinnis-grp.co.uk/public_html/wp-includes/plugin.php(478): WP_Hook->do_action(Array)
#3 /home/customer/www/otw.sinnis-grp.co.uk/public_html/wp-settings.php(523): do_action('init')
#4 /home/customer/www/otw.sinnis-grp.co.uk/public_html/wp-config.php(90): require_once('/home/customer/...')
#5 /home/customer/www/otw.sinnis-grp.co.uk/public_html/wp-load.php(37): require_once('/home/customer/...')
#6 /home/customer/www/otw.sinnis-grp.co.uk/public_html/wp-blog-header.php(13): require_once('/home/customer/...')
#7 / in /home/customer/www/otw.sinnis-grp.co.uk/public_html/wp-content/plugins/caleader-core/post_type/custom-post-services.php on line 41

2020-03-18T12:33:39+00:00 CRITICAL Uncaught Error: Call to undefined function caleader_options() in /home/customer/www/otw.sinnis-grp.co.uk/public_html/wp-content/plugins/caleader-core/post_type/custom-post-services.php:41
Stack trace:
#0 /home/customer/www/otw.sinnis-grp.co.uk/public_html/wp-includes/class-wp-hook.php(288): CPT_CarLeader_Services->carleader_services_services_post_type('')
#1 /home/customer/www/otw.sinnis-grp.co.uk/public_html/wp-includes/class-wp-hook.php(312): WP_Hook->apply_filters(NULL, Array)
#2 /home/customer/www/otw.sinnis-grp.co.uk/public_html/wp-includes/plugin.php(478): WP_Hook->do_action(Array)
#3 /home/customer/www/otw.sinnis-grp.co.uk/public_html/wp-settings.php(523): do_action('init')
#4 /home/customer/www/otw.sinnis-grp.co.uk/public_html/wp-config.php(90): require_once('/home/customer/...')
#5 /home/customer/www/otw.sinnis-grp.co.uk/public_html/wp-load.php(37): require_once('/home/customer/...')
#6 /home/customer/www/otw.sinnis-grp.co.uk/public_html/wp-blog-header.php(13): require_once('/home/customer/...')
#7 / in /home/customer/www/otw.sinnis-grp.co.uk/public_html/wp-content/plugins/caleader-core/post_type/custom-post-services.php on line 41

2020-03-18T12:33:52+00:00 CRITICAL Uncaught Error: Call to undefined function caleader_options() in /home/customer/www/otw.sinnis-grp.co.uk/public_html/wp-content/plugins/caleader-core/post_type/custom-post-services.php:41
Stack trace:
#0 /home/customer/www/otw.sinnis-grp.co.uk/public_html/wp-includes/class-wp-hook.php(288): CPT_CarLeader_Services->carleader_services_services_post_type('')
#1 /home/customer/www/otw.sinnis-grp.co.uk/public_html/wp-includes/class-wp-hook.php(312): WP_Hook->apply_filters(NULL, Array)
#2 /home/customer/www/otw.sinnis-grp.co.uk/public_html/wp-includes/plugin.php(478): WP_Hook->do_action(Array)
#3 /home/customer/www/otw.sinnis-grp.co.uk/public_html/wp-settings.php(523): do_action('init')
#4 /home/customer/www/otw.sinnis-grp.co.uk/public_html/wp-config.php(90): require_once('/home/customer/...')
#5 /home/customer/www/otw.sinnis-grp.co.uk/public_html/wp-load.php(37): require_once('/home/customer/...')
#6 /home/customer/www/otw.sinnis-grp.co.uk/public_html/wp-cron.php(44): require_once('/home/customer/...')
#7 {main}
  in /home/customer/www/otw.sinnis-grp.co.uk/public_html/wp-content/plugins/caleader-core/post_type/custom-post-services.php on line 41

2020-03-18T12:33:52+00:00 CRITICAL Uncaught Error: Call to undefined function caleader_options() in /home/customer/www/otw.sinnis-grp.co.uk/public_html/wp-content/plugins/caleader-core/post_type/custom-post-services.php:41
Stack trace:
#0 /home/customer/www/otw.sinnis-grp.co.uk/public_html/wp-includes/class-wp-hook.php(288): CPT_CarLeader_Services->carleader_services_services_post_type('')
#1 /home/customer/www/otw.sinnis-grp.co.uk/public_html/wp-includes/class-wp-hook.php(312): WP_Hook->apply_filters(NULL, Array)
#2 /home/customer/www/otw.sinnis-grp.co.uk/public_html/wp-includes/plugin.php(478): WP_Hook->do_action(Array)
#3 /home/customer/www/otw.sinnis-grp.co.uk/public_html/wp-settings.php(523): do_action('init')
#4 /home/customer/www/otw.sinnis-grp.co.uk/public_html/wp-config.php(90): require_once('/home/customer/...')
#5 /home/customer/www/otw.sinnis-grp.co.uk/public_html/wp-load.php(37): require_once('/home/customer/...')
#6 /home/customer/www/otw.sinnis-grp.co.uk/public_html/wp-admin/admin.php(34): require_once('/home/customer/...')
#7 / in /home/customer/www/otw.sinnis-grp.co.uk/public_html/wp-content/plugins/caleader-core/post_type/custom-post-services.php on line 41

2020-03-18T12:34:33+00:00 CRITICAL Uncaught Error: Call to undefined function caleader_options() in /home/customer/www/otw.sinnis-grp.co.uk/public_html/wp-content/plugins/caleader-core/post_type/custom-post-services.php:41
Stack trace:
#0 /home/customer/www/otw.sinnis-grp.co.uk/public_html/wp-includes/class-wp-hook.php(288): CPT_CarLeader_Services->carleader_services_services_post_type('')
#1 /home/customer/www/otw.sinnis-grp.co.uk/public_html/wp-includes/class-wp-hook.php(312): WP_Hook->apply_filters(NULL, Array)
#2 /home/customer/www/otw.sinnis-grp.co.uk/public_html/wp-includes/plugin.php(478): WP_Hook->do_action(Array)
#3 /home/customer/www/otw.sinnis-grp.co.uk/public_html/wp-settings.php(523): do_action('init')
#4 /home/customer/www/otw.sinnis-grp.co.uk/public_html/wp-config.php(90): require_once('/home/customer/...')
#5 /home/customer/www/otw.sinnis-grp.co.uk/public_html/wp-load.php(37): require_once('/home/customer/...')
#6 /home/customer/www/otw.sinnis-grp.co.uk/public_html/wp-admin/admin.php(34): require_once('/home/customer/...')
#7 / in /home/customer/www/otw.sinnis-grp.co.uk/public_html/wp-content/plugins/caleader-core/post_type/custom-post-services.php on line 41

2020-03-18T12:35:50+00:00 CRITICAL Uncaught Error: Call to undefined function caleader_options() in /home/customer/www/otw.sinnis-grp.co.uk/public_html/wp-content/plugins/caleader-core/post_type/custom-post-services.php:41
Stack trace:
#0 /home/customer/www/otw.sinnis-grp.co.uk/public_html/wp-includes/class-wp-hook.php(288): CPT_CarLeader_Services->carleader_services_services_post_type('')
#1 /home/customer/www/otw.sinnis-grp.co.uk/public_html/wp-includes/class-wp-hook.php(312): WP_Hook->apply_filters(NULL, Array)
#2 /home/customer/www/otw.sinnis-grp.co.uk/public_html/wp-includes/plugin.php(478): WP_Hook->do_action(Array)
#3 /home/customer/www/otw.sinnis-grp.co.uk/public_html/wp-settings.php(523): do_action('init')
#4 /home/customer/www/otw.sinnis-grp.co.uk/public_html/wp-config.php(90): require_once('/home/customer/...')
#5 /home/customer/www/otw.sinnis-grp.co.uk/public_html/wp-load.php(37): require_once('/home/customer/...')
#6 /home/customer/www/otw.sinnis-grp.co.uk/public_html/wp-cron.php(44): require_once('/home/customer/...')
#7 {main}
  in /home/customer/www/otw.sinnis-grp.co.uk/public_html/wp-content/plugins/caleader-core/post_type/custom-post-services.php on line 41

2020-03-18T12:35:50+00:00 CRITICAL Uncaught Error: Call to undefined function caleader_options() in /home/customer/www/otw.sinnis-grp.co.uk/public_html/wp-content/plugins/caleader-core/post_type/custom-post-services.php:41
Stack trace:
#0 /home/customer/www/otw.sinnis-grp.co.uk/public_html/wp-includes/class-wp-hook.php(288): CPT_CarLeader_Services->carleader_services_services_post_type('')
#1 /home/customer/www/otw.sinnis-grp.co.uk/public_html/wp-includes/class-wp-hook.php(312): WP_Hook->apply_filters(NULL, Array)
#2 /home/customer/www/otw.sinnis-grp.co.uk/public_html/wp-includes/plugin.php(478): WP_Hook->do_action(Array)
#3 /home/customer/www/otw.sinnis-grp.co.uk/public_html/wp-settings.php(523): do_action('init')
#4 /home/customer/www/otw.sinnis-grp.co.uk/public_html/wp-config.php(90): require_once('/home/customer/...')
#5 /home/customer/www/otw.sinnis-grp.co.uk/public_html/wp-load.php(37): require_once('/home/customer/...')
#6 /home/customer/www/otw.sinnis-grp.co.uk/public_html/wp-admin/admin.php(34): require_once('/home/customer/...')
#7 / in /home/customer/www/otw.sinnis-grp.co.uk/public_html/wp-content/plugins/caleader-core/post_type/custom-post-services.php on line 41

2020-03-18T12:36:05+00:00 CRITICAL Uncaught Error: Call to undefined function caleader_options() in /home/customer/www/otw.sinnis-grp.co.uk/public_html/wp-content/plugins/caleader-core/post_type/custom-post-services.php:41
Stack trace:
#0 /home/customer/www/otw.sinnis-grp.co.uk/public_html/wp-includes/class-wp-hook.php(288): CPT_CarLeader_Services->carleader_services_services_post_type('')
#1 /home/customer/www/otw.sinnis-grp.co.uk/public_html/wp-includes/class-wp-hook.php(312): WP_Hook->apply_filters(NULL, Array)
#2 /home/customer/www/otw.sinnis-grp.co.uk/public_html/wp-includes/plugin.php(478): WP_Hook->do_action(Array)
#3 /home/customer/www/otw.sinnis-grp.co.uk/public_html/wp-settings.php(523): do_action('init')
#4 /home/customer/www/otw.sinnis-grp.co.uk/public_html/wp-config.php(90): require_once('/home/customer/...')
#5 /home/customer/www/otw.sinnis-grp.co.uk/public_html/wp-load.php(37): require_once('/home/customer/...')
#6 /home/customer/www/otw.sinnis-grp.co.uk/public_html/wp-blog-header.php(13): require_once('/home/customer/...')
#7 / in /home/customer/www/otw.sinnis-grp.co.uk/public_html/wp-content/plugins/caleader-core/post_type/custom-post-services.php on line 41

2020-03-18T12:36:26+00:00 CRITICAL Uncaught Error: Call to undefined function caleader_options() in /home/customer/www/otw.sinnis-grp.co.uk/public_html/wp-content/plugins/caleader-core/post_type/custom-post-services.php:41
Stack trace:
#0 /home/customer/www/otw.sinnis-grp.co.uk/public_html/wp-includes/class-wp-hook.php(288): CPT_CarLeader_Services->carleader_services_services_post_type('')
#1 /home/customer/www/otw.sinnis-grp.co.uk/public_html/wp-includes/class-wp-hook.php(312): WP_Hook->apply_filters(NULL, Array)
#2 /home/customer/www/otw.sinnis-grp.co.uk/public_html/wp-includes/plugin.php(478): WP_Hook->do_action(Array)
#3 /home/customer/www/otw.sinnis-grp.co.uk/public_html/wp-settings.php(523): do_action('init')
#4 /home/customer/www/otw.sinnis-grp.co.uk/public_html/wp-config.php(90): require_once('/home/customer/...')
#5 /home/customer/www/otw.sinnis-grp.co.uk/public_html/wp-load.php(37): require_once('/home/customer/...')
#6 /home/customer/www/otw.sinnis-grp.co.uk/public_html/wp-admin/admin.php(34): require_once('/home/customer/...')
#7 / in /home/customer/www/otw.sinnis-grp.co.uk/public_html/wp-content/plugins/caleader-core/post_type/custom-post-services.php on line 41

2020-03-18T12:36:27+00:00 CRITICAL Uncaught Error: Call to undefined function caleader_options() in /home/customer/www/otw.sinnis-grp.co.uk/public_html/wp-content/plugins/caleader-core/post_type/custom-post-services.php:41
Stack trace:
#0 /home/customer/www/otw.sinnis-grp.co.uk/public_html/wp-includes/class-wp-hook.php(288): CPT_CarLeader_Services->carleader_services_services_post_type('')
#1 /home/customer/www/otw.sinnis-grp.co.uk/public_html/wp-includes/class-wp-hook.php(312): WP_Hook->apply_filters(NULL, Array)
#2 /home/customer/www/otw.sinnis-grp.co.uk/public_html/wp-includes/plugin.php(478): WP_Hook->do_action(Array)
#3 /home/customer/www/otw.sinnis-grp.co.uk/public_html/wp-settings.php(523): do_action('init')
#4 /home/customer/www/otw.sinnis-grp.co.uk/public_html/wp-config.php(90): require_once('/home/customer/...')
#5 /home/customer/www/otw.sinnis-grp.co.uk/public_html/wp-load.php(37): require_once('/home/customer/...')
#6 /home/customer/www/otw.sinnis-grp.co.uk/public_html/wp-admin/admin.php(34): require_once('/home/customer/...')
#7 / in /home/customer/www/otw.sinnis-grp.co.uk/public_html/wp-content/plugins/caleader-core/post_type/custom-post-services.php on line 41

2020-03-18T12:36:28+00:00 CRITICAL Uncaught Error: Call to undefined function caleader_options() in /home/customer/www/otw.sinnis-grp.co.uk/public_html/wp-content/plugins/caleader-core/post_type/custom-post-services.php:41
Stack trace:
#0 /home/customer/www/otw.sinnis-grp.co.uk/public_html/wp-includes/class-wp-hook.php(288): CPT_CarLeader_Services->carleader_services_services_post_type('')
#1 /home/customer/www/otw.sinnis-grp.co.uk/public_html/wp-includes/class-wp-hook.php(312): WP_Hook->apply_filters(NULL, Array)
#2 /home/customer/www/otw.sinnis-grp.co.uk/public_html/wp-includes/plugin.php(478): WP_Hook->do_action(Array)
#3 /home/customer/www/otw.sinnis-grp.co.uk/public_html/wp-settings.php(523): do_action('init')
#4 /home/customer/www/otw.sinnis-grp.co.uk/public_html/wp-config.php(90): require_once('/home/customer/...')
#5 /home/customer/www/otw.sinnis-grp.co.uk/public_html/wp-load.php(37): require_once('/home/customer/...')
#6 /home/customer/www/otw.sinnis-grp.co.uk/public_html/wp-admin/admin.php(34): require_once('/home/customer/...')
#7 / in /home/customer/www/otw.sinnis-grp.co.uk/public_html/wp-content/plugins/caleader-core/post_type/custom-post-services.php on line 41

2020-03-18T12:45:32+00:00 CRITICAL Uncaught Error: Call to undefined function caleader_options() in /home/customer/www/otw.sinnis-grp.co.uk/public_html/wp-content/plugins/caleader-core/post_type/custom-post-services.php:41
Stack trace:
#0 /home/customer/www/otw.sinnis-grp.co.uk/public_html/wp-includes/class-wp-hook.php(288): CPT_CarLeader_Services->carleader_services_services_post_type('')
#1 /home/customer/www/otw.sinnis-grp.co.uk/public_html/wp-includes/class-wp-hook.php(312): WP_Hook->apply_filters(NULL, Array)
#2 /home/customer/www/otw.sinnis-grp.co.uk/public_html/wp-includes/plugin.php(478): WP_Hook->do_action(Array)
#3 /home/customer/www/otw.sinnis-grp.co.uk/public_html/wp-settings.php(523): do_action('init')
#4 /home/customer/www/otw.sinnis-grp.co.uk/public_html/wp-config.php(90): require_once('/home/customer/...')
#5 /home/customer/www/otw.sinnis-grp.co.uk/public_html/wp-load.php(37): require_once('/home/customer/...')
#6 /home/customer/www/otw.sinnis-grp.co.uk/public_html/wp-cron.php(44): require_once('/home/customer/...')
#7 {main}
  in /home/customer/www/otw.sinnis-grp.co.uk/public_html/wp-content/plugins/caleader-core/post_type/custom-post-services.php on line 41

2020-03-18T12:45:32+00:00 CRITICAL Uncaught Error: Call to undefined function caleader_options() in /home/customer/www/otw.sinnis-grp.co.uk/public_html/wp-content/plugins/caleader-core/post_type/custom-post-services.php:41
Stack trace:
#0 /home/customer/www/otw.sinnis-grp.co.uk/public_html/wp-includes/class-wp-hook.php(288): CPT_CarLeader_Services->carleader_services_services_post_type('')
#1 /home/customer/www/otw.sinnis-grp.co.uk/public_html/wp-includes/class-wp-hook.php(312): WP_Hook->apply_filters(NULL, Array)
#2 /home/customer/www/otw.sinnis-grp.co.uk/public_html/wp-includes/plugin.php(478): WP_Hook->do_action(Array)
#3 /home/customer/www/otw.sinnis-grp.co.uk/public_html/wp-settings.php(523): do_action('init')
#4 /home/customer/www/otw.sinnis-grp.co.uk/public_html/wp-config.php(90): require_once('/home/customer/...')
#5 /home/customer/www/otw.sinnis-grp.co.uk/public_html/wp-load.php(37): require_once('/home/customer/...')
#6 /home/customer/www/otw.sinnis-grp.co.uk/public_html/wp-admin/admin.php(34): require_once('/home/customer/...')
#7 / in /home/customer/www/otw.sinnis-grp.co.uk/public_html/wp-content/plugins/caleader-core/post_type/custom-post-services.php on line 41

2020-03-18T12:49:19+00:00 CRITICAL Uncaught Error: Call to undefined function caleader_options() in /home/customer/www/otw.sinnis-grp.co.uk/public_html/wp-content/plugins/caleader-core/post_type/custom-post-services.php:41
Stack trace:
#0 /home/customer/www/otw.sinnis-grp.co.uk/public_html/wp-includes/class-wp-hook.php(288): CPT_CarLeader_Services->carleader_services_services_post_type('')
#1 /home/customer/www/otw.sinnis-grp.co.uk/public_html/wp-includes/class-wp-hook.php(312): WP_Hook->apply_filters(NULL, Array)
#2 /home/customer/www/otw.sinnis-grp.co.uk/public_html/wp-includes/plugin.php(478): WP_Hook->do_action(Array)
#3 /home/customer/www/otw.sinnis-grp.co.uk/public_html/wp-settings.php(523): do_action('init')
#4 /home/customer/www/otw.sinnis-grp.co.uk/public_html/wp-config.php(90): require_once('/home/customer/...')
#5 /home/customer/www/otw.sinnis-grp.co.uk/public_html/wp-load.php(37): require_once('/home/customer/...')
#6 /home/customer/www/otw.sinnis-grp.co.uk/public_html/wp-cron.php(44): require_once('/home/customer/...')
#7 {main}
  in /home/customer/www/otw.sinnis-grp.co.uk/public_html/wp-content/plugins/caleader-core/post_type/custom-post-services.php on line 41

2020-03-18T12:49:19+00:00 CRITICAL Uncaught Error: Call to undefined function caleader_options() in /home/customer/www/otw.sinnis-grp.co.uk/public_html/wp-content/plugins/caleader-core/post_type/custom-post-services.php:41
Stack trace:
#0 /home/customer/www/otw.sinnis-grp.co.uk/public_html/wp-includes/class-wp-hook.php(288): CPT_CarLeader_Services->carleader_services_services_post_type('')
#1 /home/customer/www/otw.sinnis-grp.co.uk/public_html/wp-includes/class-wp-hook.php(312): WP_Hook->apply_filters(NULL, Array)
#2 /home/customer/www/otw.sinnis-grp.co.uk/public_html/wp-includes/plugin.php(478): WP_Hook->do_action(Array)
#3 /home/customer/www/otw.sinnis-grp.co.uk/public_html/wp-settings.php(523): do_action('init')
#4 /home/customer/www/otw.sinnis-grp.co.uk/public_html/wp-config.php(90): require_once('/home/customer/...')
#5 /home/customer/www/otw.sinnis-grp.co.uk/public_html/wp-load.php(37): require_once('/home/customer/...')
#6 /home/customer/www/otw.sinnis-grp.co.uk/public_html/wp-admin/admin.php(34): require_once('/home/customer/...')
#7 / in /home/customer/www/otw.sinnis-grp.co.uk/public_html/wp-content/plugins/caleader-core/post_type/custom-post-services.php on line 41

2020-03-18T12:49:57+00:00 CRITICAL Uncaught Error: Call to undefined function caleader_options() in /home/customer/www/otw.sinnis-grp.co.uk/public_html/wp-content/plugins/caleader-core/post_type/custom-post-services.php:41
Stack trace:
#0 /home/customer/www/otw.sinnis-grp.co.uk/public_html/wp-includes/class-wp-hook.php(288): CPT_CarLeader_Services->carleader_services_services_post_type('')
#1 /home/customer/www/otw.sinnis-grp.co.uk/public_html/wp-includes/class-wp-hook.php(312): WP_Hook->apply_filters(NULL, Array)
#2 /home/customer/www/otw.sinnis-grp.co.uk/public_html/wp-includes/plugin.php(478): WP_Hook->do_action(Array)
#3 /home/customer/www/otw.sinnis-grp.co.uk/public_html/wp-settings.php(523): do_action('init')
#4 /home/customer/www/otw.sinnis-grp.co.uk/public_html/wp-config.php(90): require_once('/home/customer/...')
#5 /home/customer/www/otw.sinnis-grp.co.uk/public_html/wp-load.php(37): require_once('/home/customer/...')
#6 /home/customer/www/otw.sinnis-grp.co.uk/public_html/wp-admin/admin.php(34): require_once('/home/customer/...')
#7 / in /home/customer/www/otw.sinnis-grp.co.uk/public_html/wp-content/plugins/caleader-core/post_type/custom-post-services.php on line 41

2020-03-18T12:51:08+00:00 CRITICAL Uncaught Error: Call to undefined function caleader_options() in /home/customer/www/otw.sinnis-grp.co.uk/public_html/wp-content/plugins/caleader-core/post_type/custom-post-services.php:41
Stack trace:
#0 /home/customer/www/otw.sinnis-grp.co.uk/public_html/wp-includes/class-wp-hook.php(288): CPT_CarLeader_Services->carleader_services_services_post_type('')
#1 /home/customer/www/otw.sinnis-grp.co.uk/public_html/wp-includes/class-wp-hook.php(312): WP_Hook->apply_filters(NULL, Array)
#2 /home/customer/www/otw.sinnis-grp.co.uk/public_html/wp-includes/plugin.php(478): WP_Hook->do_action(Array)
#3 /home/customer/www/otw.sinnis-grp.co.uk/public_html/wp-settings.php(523): do_action('init')
#4 /home/customer/www/otw.sinnis-grp.co.uk/public_html/wp-config.php(90): require_once('/home/customer/...')
#5 /home/customer/www/otw.sinnis-grp.co.uk/public_html/wp-load.php(37): require_once('/home/customer/...')
#6 /home/customer/www/otw.sinnis-grp.co.uk/public_html/wp-cron.php(44): require_once('/home/customer/...')
#7 {main}
  in /home/customer/www/otw.sinnis-grp.co.uk/public_html/wp-content/plugins/caleader-core/post_type/custom-post-services.php on line 41

2020-03-18T12:51:08+00:00 CRITICAL Uncaught Error: Call to undefined function caleader_options() in /home/customer/www/otw.sinnis-grp.co.uk/public_html/wp-content/plugins/caleader-core/post_type/custom-post-services.php:41
Stack trace:
#0 /home/customer/www/otw.sinnis-grp.co.uk/public_html/wp-includes/class-wp-hook.php(288): CPT_CarLeader_Services->carleader_services_services_post_type('')
#1 /home/customer/www/otw.sinnis-grp.co.uk/public_html/wp-includes/class-wp-hook.php(312): WP_Hook->apply_filters(NULL, Array)
#2 /home/customer/www/otw.sinnis-grp.co.uk/public_html/wp-includes/plugin.php(478): WP_Hook->do_action(Array)
#3 /home/customer/www/otw.sinnis-grp.co.uk/public_html/wp-settings.php(523): do_action('init')
#4 /home/customer/www/otw.sinnis-grp.co.uk/public_html/wp-config.php(90): require_once('/home/customer/...')
#5 /home/customer/www/otw.sinnis-grp.co.uk/public_html/wp-load.php(37): require_once('/home/customer/...')
#6 /home/customer/www/otw.sinnis-grp.co.uk/public_html/wp-admin/admin.php(34): require_once('/home/customer/...')
#7 / in /home/customer/www/otw.sinnis-grp.co.uk/public_html/wp-content/plugins/caleader-core/post_type/custom-post-services.php on line 41

2020-03-18T12:51:12+00:00 CRITICAL Uncaught Error: Call to undefined function caleader_options() in /home/customer/www/otw.sinnis-grp.co.uk/public_html/wp-content/plugins/caleader-core/post_type/custom-post-services.php:41
Stack trace:
#0 /home/customer/www/otw.sinnis-grp.co.uk/public_html/wp-includes/class-wp-hook.php(288): CPT_CarLeader_Services->carleader_services_services_post_type('')
#1 /home/customer/www/otw.sinnis-grp.co.uk/public_html/wp-includes/class-wp-hook.php(312): WP_Hook->apply_filters(NULL, Array)
#2 /home/customer/www/otw.sinnis-grp.co.uk/public_html/wp-includes/plugin.php(478): WP_Hook->do_action(Array)
#3 /home/customer/www/otw.sinnis-grp.co.uk/public_html/wp-settings.php(523): do_action('init')
#4 /home/customer/www/otw.sinnis-grp.co.uk/public_html/wp-config.php(90): require_once('/home/customer/...')
#5 /home/customer/www/otw.sinnis-grp.co.uk/public_html/wp-load.php(37): require_once('/home/customer/...')
#6 /home/customer/www/otw.sinnis-grp.co.uk/public_html/wp-blog-header.php(13): require_once('/home/customer/...')
#7 / in /home/customer/www/otw.sinnis-grp.co.uk/public_html/wp-content/plugins/caleader-core/post_type/custom-post-services.php on line 41

2020-03-18T12:51:17+00:00 CRITICAL Uncaught Error: Call to undefined function caleader_options() in /home/customer/www/otw.sinnis-grp.co.uk/public_html/wp-content/plugins/caleader-core/post_type/custom-post-services.php:41
Stack trace:
#0 /home/customer/www/otw.sinnis-grp.co.uk/public_html/wp-includes/class-wp-hook.php(288): CPT_CarLeader_Services->carleader_services_services_post_type('')
#1 /home/customer/www/otw.sinnis-grp.co.uk/public_html/wp-includes/class-wp-hook.php(312): WP_Hook->apply_filters(NULL, Array)
#2 /home/customer/www/otw.sinnis-grp.co.uk/public_html/wp-includes/plugin.php(478): WP_Hook->do_action(Array)
#3 /home/customer/www/otw.sinnis-grp.co.uk/public_html/wp-settings.php(523): do_action('init')
#4 /home/customer/www/otw.sinnis-grp.co.uk/public_html/wp-config.php(90): require_once('/home/customer/...')
#5 /home/customer/www/otw.sinnis-grp.co.uk/public_html/wp-load.php(37): require_once('/home/customer/...')
#6 /home/customer/www/otw.sinnis-grp.co.uk/public_html/wp-blog-header.php(13): require_once('/home/customer/...')
#7 / in /home/customer/www/otw.sinnis-grp.co.uk/public_html/wp-content/plugins/caleader-core/post_type/custom-post-services.php on line 41

2020-03-18T12:53:43+00:00 CRITICAL Uncaught Error: Call to undefined function caleader_options() in /home/customer/www/otw.sinnis-grp.co.uk/public_html/wp-content/plugins/caleader-core/post_type/custom-post-services.php:41
Stack trace:
#0 /home/customer/www/otw.sinnis-grp.co.uk/public_html/wp-includes/class-wp-hook.php(288): CPT_CarLeader_Services->carleader_services_services_post_type('')
#1 /home/customer/www/otw.sinnis-grp.co.uk/public_html/wp-includes/class-wp-hook.php(312): WP_Hook->apply_filters(NULL, Array)
#2 /home/customer/www/otw.sinnis-grp.co.uk/public_html/wp-includes/plugin.php(478): WP_Hook->do_action(Array)
#3 /home/customer/www/otw.sinnis-grp.co.uk/public_html/wp-settings.php(523): do_action('init')
#4 /home/customer/www/otw.sinnis-grp.co.uk/public_html/wp-config.php(90): require_once('/home/customer/...')
#5 /home/customer/www/otw.sinnis-grp.co.uk/public_html/wp-load.php(37): require_once('/home/customer/...')
#6 /home/customer/www/otw.sinnis-grp.co.uk/public_html/wp-cron.php(44): require_once('/home/customer/...')
#7 {main}
  in /home/customer/www/otw.sinnis-grp.co.uk/public_html/wp-content/plugins/caleader-core/post_type/custom-post-services.php on line 41

2020-03-18T12:53:43+00:00 CRITICAL Uncaught Error: Call to undefined function caleader_options() in /home/customer/www/otw.sinnis-grp.co.uk/public_html/wp-content/plugins/caleader-core/post_type/custom-post-services.php:41
Stack trace:
#0 /home/customer/www/otw.sinnis-grp.co.uk/public_html/wp-includes/class-wp-hook.php(288): CPT_CarLeader_Services->carleader_services_services_post_type('')
#1 /home/customer/www/otw.sinnis-grp.co.uk/public_html/wp-includes/class-wp-hook.php(312): WP_Hook->apply_filters(NULL, Array)
#2 /home/customer/www/otw.sinnis-grp.co.uk/public_html/wp-includes/plugin.php(478): WP_Hook->do_action(Array)
#3 /home/customer/www/otw.sinnis-grp.co.uk/public_html/wp-settings.php(523): do_action('init')
#4 /home/customer/www/otw.sinnis-grp.co.uk/public_html/wp-config.php(90): require_once('/home/customer/...')
#5 /home/customer/www/otw.sinnis-grp.co.uk/public_html/wp-load.php(37): require_once('/home/customer/...')
#6 /home/customer/www/otw.sinnis-grp.co.uk/public_html/wp-blog-header.php(13): require_once('/home/customer/...')
#7 / in /home/customer/www/otw.sinnis-grp.co.uk/public_html/wp-content/plugins/caleader-core/post_type/custom-post-services.php on line 41

2020-03-18T14:03:38+00:00 CRITICAL Uncaught Error: Call to undefined function caleader_options() in /home/customer/www/otw.sinnis-grp.co.uk/public_html/wp-content/plugins/caleader-core/post_type/custom-post-services.php:41
Stack trace:
#0 /home/customer/www/otw.sinnis-grp.co.uk/public_html/wp-includes/class-wp-hook.php(288): CPT_CarLeader_Services->carleader_services_services_post_type('')
#1 /home/customer/www/otw.sinnis-grp.co.uk/public_html/wp-includes/class-wp-hook.php(312): WP_Hook->apply_filters(NULL, Array)
#2 /home/customer/www/otw.sinnis-grp.co.uk/public_html/wp-includes/plugin.php(478): WP_Hook->do_action(Array)
#3 /home/customer/www/otw.sinnis-grp.co.uk/public_html/wp-settings.php(523): do_action('init')
#4 /home/customer/www/otw.sinnis-grp.co.uk/public_html/wp-config.php(90): require_once('/home/customer/...')
#5 /home/customer/www/otw.sinnis-grp.co.uk/public_html/wp-load.php(37): require_once('/home/customer/...')
#6 /home/customer/www/otw.sinnis-grp.co.uk/public_html/wp-cron.php(44): require_once('/home/customer/...')
#7 {main}
  in /home/customer/www/otw.sinnis-grp.co.uk/public_html/wp-content/plugins/caleader-core/post_type/custom-post-services.php on line 41

2020-03-18T14:03:38+00:00 CRITICAL Uncaught Error: Call to undefined function caleader_options() in /home/customer/www/otw.sinnis-grp.co.uk/public_html/wp-content/plugins/caleader-core/post_type/custom-post-services.php:41
Stack trace:
#0 /home/customer/www/otw.sinnis-grp.co.uk/public_html/wp-includes/class-wp-hook.php(288): CPT_CarLeader_Services->carleader_services_services_post_type('')
#1 /home/customer/www/otw.sinnis-grp.co.uk/public_html/wp-includes/class-wp-hook.php(312): WP_Hook->apply_filters(NULL, Array)
#2 /home/customer/www/otw.sinnis-grp.co.uk/public_html/wp-includes/plugin.php(478): WP_Hook->do_action(Array)
#3 /home/customer/www/otw.sinnis-grp.co.uk/public_html/wp-settings.php(523): do_action('init')
#4 /home/customer/www/otw.sinnis-grp.co.uk/public_html/wp-config.php(90): require_once('/home/customer/...')
#5 /home/customer/www/otw.sinnis-grp.co.uk/public_html/wp-load.php(37): require_once('/home/customer/...')
#6 /home/customer/www/otw.sinnis-grp.co.uk/public_html/wp-admin/admin.php(34): require_once('/home/customer/...')
#7 / in /home/customer/www/otw.sinnis-grp.co.uk/public_html/wp-content/plugins/caleader-core/post_type/custom-post-services.php on line 41

2020-03-18T14:15:32+00:00 CRITICAL Uncaught Error: Call to undefined function caleader_options() in /home/customer/www/otw.sinnis-grp.co.uk/public_html/wp-content/plugins/caleader-core/post_type/custom-post-services.php:41
Stack trace:
#0 /home/customer/www/otw.sinnis-grp.co.uk/public_html/wp-includes/class-wp-hook.php(288): CPT_CarLeader_Services->carleader_services_services_post_type('')
#1 /home/customer/www/otw.sinnis-grp.co.uk/public_html/wp-includes/class-wp-hook.php(312): WP_Hook->apply_filters(NULL, Array)
#2 /home/customer/www/otw.sinnis-grp.co.uk/public_html/wp-includes/plugin.php(478): WP_Hook->do_action(Array)
#3 /home/customer/www/otw.sinnis-grp.co.uk/public_html/wp-settings.php(523): do_action('init')
#4 /home/customer/www/otw.sinnis-grp.co.uk/public_html/wp-config.php(90): require_once('/home/customer/...')
#5 /home/customer/www/otw.sinnis-grp.co.uk/public_html/wp-load.php(37): require_once('/home/customer/...')
#6 /home/customer/www/otw.sinnis-grp.co.uk/public_html/wp-cron.php(44): require_once('/home/customer/...')
#7 {main}
  in /home/customer/www/otw.sinnis-grp.co.uk/public_html/wp-content/plugins/caleader-core/post_type/custom-post-services.php on line 41

2020-03-18T14:15:32+00:00 CRITICAL Uncaught Error: Call to undefined function caleader_options() in /home/customer/www/otw.sinnis-grp.co.uk/public_html/wp-content/plugins/caleader-core/post_type/custom-post-services.php:41
Stack trace:
#0 /home/customer/www/otw.sinnis-grp.co.uk/public_html/wp-includes/class-wp-hook.php(288): CPT_CarLeader_Services->carleader_services_services_post_type('')
#1 /home/customer/www/otw.sinnis-grp.co.uk/public_html/wp-includes/class-wp-hook.php(312): WP_Hook->apply_filters(NULL, Array)
#2 /home/customer/www/otw.sinnis-grp.co.uk/public_html/wp-includes/plugin.php(478): WP_Hook->do_action(Array)
#3 /home/customer/www/otw.sinnis-grp.co.uk/public_html/wp-settings.php(523): do_action('init')
#4 /home/customer/www/otw.sinnis-grp.co.uk/public_html/wp-config.php(90): require_once('/home/customer/...')
#5 /home/customer/www/otw.sinnis-grp.co.uk/public_html/wp-load.php(37): require_once('/home/customer/...')
#6 /home/customer/www/otw.sinnis-grp.co.uk/public_html/wp-blog-header.php(13): require_once('/home/customer/...')
#7 / in /home/customer/www/otw.sinnis-grp.co.uk/public_html/wp-content/plugins/caleader-core/post_type/custom-post-services.php on line 41

2020-03-18T14:35:12+00:00 CRITICAL Uncaught Error: Call to undefined function caleader_options() in /home/customer/www/otw.sinnis-grp.co.uk/public_html/wp-content/plugins/caleader-core/post_type/custom-post-services.php:41
Stack trace:
#0 /home/customer/www/otw.sinnis-grp.co.uk/public_html/wp-includes/class-wp-hook.php(288): CPT_CarLeader_Services->carleader_services_services_post_type('')
#1 /home/customer/www/otw.sinnis-grp.co.uk/public_html/wp-includes/class-wp-hook.php(312): WP_Hook->apply_filters(NULL, Array)
#2 /home/customer/www/otw.sinnis-grp.co.uk/public_html/wp-includes/plugin.php(478): WP_Hook->do_action(Array)
#3 /home/customer/www/otw.sinnis-grp.co.uk/public_html/wp-settings.php(523): do_action('init')
#4 /home/customer/www/otw.sinnis-grp.co.uk/public_html/wp-config.php(90): require_once('/home/customer/...')
#5 /home/customer/www/otw.sinnis-grp.co.uk/public_html/wp-load.php(37): require_once('/home/customer/...')
#6 /home/customer/www/otw.sinnis-grp.co.uk/public_html/wp-cron.php(44): require_once('/home/customer/...')
#7 {main}
  in /home/customer/www/otw.sinnis-grp.co.uk/public_html/wp-content/plugins/caleader-core/post_type/custom-post-services.php on line 41

2020-03-18T14:35:12+00:00 CRITICAL Uncaught Error: Call to undefined function caleader_options() in /home/customer/www/otw.sinnis-grp.co.uk/public_html/wp-content/plugins/caleader-core/post_type/custom-post-services.php:41
Stack trace:
#0 /home/customer/www/otw.sinnis-grp.co.uk/public_html/wp-includes/class-wp-hook.php(288): CPT_CarLeader_Services->carleader_services_services_post_type('')
#1 /home/customer/www/otw.sinnis-grp.co.uk/public_html/wp-includes/class-wp-hook.php(312): WP_Hook->apply_filters(NULL, Array)
#2 /home/customer/www/otw.sinnis-grp.co.uk/public_html/wp-includes/plugin.php(478): WP_Hook->do_action(Array)
#3 /home/customer/www/otw.sinnis-grp.co.uk/public_html/wp-settings.php(523): do_action('init')
#4 /home/customer/www/otw.sinnis-grp.co.uk/public_html/wp-config.php(90): require_once('/home/customer/...')
#5 /home/customer/www/otw.sinnis-grp.co.uk/public_html/wp-load.php(37): require_once('/home/customer/...')
#6 /home/customer/www/otw.sinnis-grp.co.uk/public_html/wp-admin/admin.php(34): require_once('/home/customer/...')
#7 / in /home/customer/www/otw.sinnis-grp.co.uk/public_html/wp-content/plugins/caleader-core/post_type/custom-post-services.php on line 41

2020-03-18T14:35:30+00:00 CRITICAL Uncaught Error: Call to undefined function caleader_options() in /home/customer/www/otw.sinnis-grp.co.uk/public_html/wp-content/plugins/caleader-core/post_type/custom-post-services.php:41
Stack trace:
#0 /home/customer/www/otw.sinnis-grp.co.uk/public_html/wp-includes/class-wp-hook.php(288): CPT_CarLeader_Services->carleader_services_services_post_type('')
#1 /home/customer/www/otw.sinnis-grp.co.uk/public_html/wp-includes/class-wp-hook.php(312): WP_Hook->apply_filters(NULL, Array)
#2 /home/customer/www/otw.sinnis-grp.co.uk/public_html/wp-includes/plugin.php(478): WP_Hook->do_action(Array)
#3 /home/customer/www/otw.sinnis-grp.co.uk/public_html/wp-settings.php(523): do_action('init')
#4 /home/customer/www/otw.sinnis-grp.co.uk/public_html/wp-config.php(90): require_once('/home/customer/...')
#5 /home/customer/www/otw.sinnis-grp.co.uk/public_html/wp-load.php(37): require_once('/home/customer/...')
#6 /home/customer/www/otw.sinnis-grp.co.uk/public_html/wp-blog-header.php(13): require_once('/home/customer/...')
#7 / in /home/customer/www/otw.sinnis-grp.co.uk/public_html/wp-content/plugins/caleader-core/post_type/custom-post-services.php on line 41

2020-03-18T15:20:26+00:00 CRITICAL Cannot declare class OCDI_Plugin, because the name is already in use in /home/customer/www/otw.sinnis-grp.co.uk/public_html/wp-content/plugins/one-click-demo-import/one-click-demo-import.php on line 21

2020-03-18T15:20:27+00:00 CRITICAL Cannot declare class OCDI_Plugin, because the name is already in use in /home/customer/www/otw.sinnis-grp.co.uk/public_html/wp-content/plugins/one-click-demo-import/one-click-demo-import.php on line 21

2020-03-18T15:20:27+00:00 CRITICAL Cannot declare class OCDI_Plugin, because the name is already in use in /home/customer/www/otw.sinnis-grp.co.uk/public_html/wp-content/plugins/one-click-demo-import/one-click-demo-import.php on line 21

2020-03-18T15:27:40+00:00 CRITICAL Cannot declare class OCDI_Plugin, because the name is already in use in /home/customer/www/otw.sinnis-grp.co.uk/public_html/wp-content/plugins/one-click-demo-import/one-click-demo-import.php on line 21

2020-03-18T15:27:41+00:00 CRITICAL Cannot declare class OCDI_Plugin, because the name is already in use in /home/customer/www/otw.sinnis-grp.co.uk/public_html/wp-content/plugins/one-click-demo-import/one-click-demo-import.php on line 21

2020-03-18T15:27:41+00:00 CRITICAL Cannot declare class OCDI_Plugin, because the name is already in use in /home/customer/www/otw.sinnis-grp.co.uk/public_html/wp-content/plugins/one-click-demo-import/one-click-demo-import.php on line 21

2020-03-18T15:31:00+00:00 CRITICAL Cannot declare class OCDI_Plugin, because the name is already in use in /home/customer/www/otw.sinnis-grp.co.uk/public_html/wp-content/plugins/one-click-demo-import/one-click-demo-import.php on line 21

2020-03-18T15:31:01+00:00 CRITICAL Cannot declare class OCDI_Plugin, because the name is already in use in /home/customer/www/otw.sinnis-grp.co.uk/public_html/wp-content/plugins/one-click-demo-import/one-click-demo-import.php on line 21

2020-03-18T15:31:01+00:00 CRITICAL Cannot declare class OCDI_Plugin, because the name is already in use in /home/customer/www/otw.sinnis-grp.co.uk/public_html/wp-content/plugins/one-click-demo-import/one-click-demo-import.php on line 21

2020-03-18T15:32:50+00:00 CRITICAL Cannot declare class OCDI_Plugin, because the name is already in use in /home/customer/www/otw.sinnis-grp.co.uk/public_html/wp-content/plugins/caleader-demo-installer/caleader-demo-installer.php on line 22

